('/home/dumball/csvapp/build/tah/PYZ-00.pyz',
 [('PyQt5',
   '/home/dumball/csvapp/.venv/lib/python3.11/site-packages/PyQt5/__init__.py',
   'PYMODULE'),
  ('__future__', '/usr/lib/python3.11/__future__.py', 'PYMODULE'),
  ('_aix_support', '/usr/lib/python3.11/_aix_support.py', 'PYMODULE'),
  ('_bootsubprocess', '/usr/lib/python3.11/_bootsubprocess.py', 'PYMODULE'),
  ('_compat_pickle', '/usr/lib/python3.11/_compat_pickle.py', 'PYMODULE'),
  ('_compression', '/usr/lib/python3.11/_compression.py', 'PYMODULE'),
  ('_py_abc', '/usr/lib/python3.11/_py_abc.py', 'PYMODULE'),
  ('_pydecimal', '/usr/lib/python3.11/_pydecimal.py', 'PYMODULE'),
  ('_pyi_rth_utils',
   '/home/dumball/csvapp/.venv/lib/python3.11/site-packages/PyInstaller/fake-modules/_pyi_rth_utils/__init__.py',
   'PYMODULE'),
  ('_pyi_rth_utils.qt',
   '/home/dumball/csvapp/.venv/lib/python3.11/site-packages/PyInstaller/fake-modules/_pyi_rth_utils/qt.py',
   'PYMODULE'),
  ('_strptime', '/usr/lib/python3.11/_strptime.py', 'PYMODULE'),
  ('_sysconfigdata__x86_64-linux-gnu',
   '/usr/lib/python3.11/_sysconfigdata__x86_64-linux-gnu.py',
   'PYMODULE'),
  ('_threading_local', '/usr/lib/python3.11/_threading_local.py', 'PYMODULE'),
  ('argparse', '/usr/lib/python3.11/argparse.py', 'PYMODULE'),
  ('ast', '/usr/lib/python3.11/ast.py', 'PYMODULE'),
  ('asyncio', '/usr/lib/python3.11/asyncio/__init__.py', 'PYMODULE'),
  ('asyncio.base_events',
   '/usr/lib/python3.11/asyncio/base_events.py',
   'PYMODULE'),
  ('asyncio.base_futures',
   '/usr/lib/python3.11/asyncio/base_futures.py',
   'PYMODULE'),
  ('asyncio.base_subprocess',
   '/usr/lib/python3.11/asyncio/base_subprocess.py',
   'PYMODULE'),
  ('asyncio.base_tasks',
   '/usr/lib/python3.11/asyncio/base_tasks.py',
   'PYMODULE'),
  ('asyncio.constants', '/usr/lib/python3.11/asyncio/constants.py', 'PYMODULE'),
  ('asyncio.coroutines',
   '/usr/lib/python3.11/asyncio/coroutines.py',
   'PYMODULE'),
  ('asyncio.events', '/usr/lib/python3.11/asyncio/events.py', 'PYMODULE'),
  ('asyncio.exceptions',
   '/usr/lib/python3.11/asyncio/exceptions.py',
   'PYMODULE'),
  ('asyncio.format_helpers',
   '/usr/lib/python3.11/asyncio/format_helpers.py',
   'PYMODULE'),
  ('asyncio.futures', '/usr/lib/python3.11/asyncio/futures.py', 'PYMODULE'),
  ('asyncio.locks', '/usr/lib/python3.11/asyncio/locks.py', 'PYMODULE'),
  ('asyncio.log', '/usr/lib/python3.11/asyncio/log.py', 'PYMODULE'),
  ('asyncio.mixins', '/usr/lib/python3.11/asyncio/mixins.py', 'PYMODULE'),
  ('asyncio.proactor_events',
   '/usr/lib/python3.11/asyncio/proactor_events.py',
   'PYMODULE'),
  ('asyncio.protocols', '/usr/lib/python3.11/asyncio/protocols.py', 'PYMODULE'),
  ('asyncio.queues', '/usr/lib/python3.11/asyncio/queues.py', 'PYMODULE'),
  ('asyncio.runners', '/usr/lib/python3.11/asyncio/runners.py', 'PYMODULE'),
  ('asyncio.selector_events',
   '/usr/lib/python3.11/asyncio/selector_events.py',
   'PYMODULE'),
  ('asyncio.sslproto', '/usr/lib/python3.11/asyncio/sslproto.py', 'PYMODULE'),
  ('asyncio.staggered', '/usr/lib/python3.11/asyncio/staggered.py', 'PYMODULE'),
  ('asyncio.streams', '/usr/lib/python3.11/asyncio/streams.py', 'PYMODULE'),
  ('asyncio.subprocess',
   '/usr/lib/python3.11/asyncio/subprocess.py',
   'PYMODULE'),
  ('asyncio.taskgroups',
   '/usr/lib/python3.11/asyncio/taskgroups.py',
   'PYMODULE'),
  ('asyncio.tasks', '/usr/lib/python3.11/asyncio/tasks.py', 'PYMODULE'),
  ('asyncio.threads', '/usr/lib/python3.11/asyncio/threads.py', 'PYMODULE'),
  ('asyncio.timeouts', '/usr/lib/python3.11/asyncio/timeouts.py', 'PYMODULE'),
  ('asyncio.transports',
   '/usr/lib/python3.11/asyncio/transports.py',
   'PYMODULE'),
  ('asyncio.trsock', '/usr/lib/python3.11/asyncio/trsock.py', 'PYMODULE'),
  ('asyncio.unix_events',
   '/usr/lib/python3.11/asyncio/unix_events.py',
   'PYMODULE'),
  ('asyncio.windows_events',
   '/usr/lib/python3.11/asyncio/windows_events.py',
   'PYMODULE'),
  ('asyncio.windows_utils',
   '/usr/lib/python3.11/asyncio/windows_utils.py',
   'PYMODULE'),
  ('base64', '/usr/lib/python3.11/base64.py', 'PYMODULE'),
  ('bdb', '/usr/lib/python3.11/bdb.py', 'PYMODULE'),
  ('bisect', '/usr/lib/python3.11/bisect.py', 'PYMODULE'),
  ('bz2', '/usr/lib/python3.11/bz2.py', 'PYMODULE'),
  ('calendar', '/usr/lib/python3.11/calendar.py', 'PYMODULE'),
  ('cmd', '/usr/lib/python3.11/cmd.py', 'PYMODULE'),
  ('code', '/usr/lib/python3.11/code.py', 'PYMODULE'),
  ('codeop', '/usr/lib/python3.11/codeop.py', 'PYMODULE'),
  ('concurrent', '/usr/lib/python3.11/concurrent/__init__.py', 'PYMODULE'),
  ('concurrent.futures',
   '/usr/lib/python3.11/concurrent/futures/__init__.py',
   'PYMODULE'),
  ('concurrent.futures._base',
   '/usr/lib/python3.11/concurrent/futures/_base.py',
   'PYMODULE'),
  ('concurrent.futures.process',
   '/usr/lib/python3.11/concurrent/futures/process.py',
   'PYMODULE'),
  ('concurrent.futures.thread',
   '/usr/lib/python3.11/concurrent/futures/thread.py',
   'PYMODULE'),
  ('configparser', '/usr/lib/python3.11/configparser.py', 'PYMODULE'),
  ('contextlib', '/usr/lib/python3.11/contextlib.py', 'PYMODULE'),
  ('contextvars', '/usr/lib/python3.11/contextvars.py', 'PYMODULE'),
  ('copy', '/usr/lib/python3.11/copy.py', 'PYMODULE'),
  ('csv', '/usr/lib/python3.11/csv.py', 'PYMODULE'),
  ('ctypes', '/usr/lib/python3.11/ctypes/__init__.py', 'PYMODULE'),
  ('ctypes._endian', '/usr/lib/python3.11/ctypes/_endian.py', 'PYMODULE'),
  ('ctypes.wintypes', '/usr/lib/python3.11/ctypes/wintypes.py', 'PYMODULE'),
  ('dataclasses', '/usr/lib/python3.11/dataclasses.py', 'PYMODULE'),
  ('datetime', '/usr/lib/python3.11/datetime.py', 'PYMODULE'),
  ('dateutil',
   '/home/dumball/csvapp/.venv/lib/python3.11/site-packages/dateutil/__init__.py',
   'PYMODULE'),
  ('dateutil._common',
   '/home/dumball/csvapp/.venv/lib/python3.11/site-packages/dateutil/_common.py',
   'PYMODULE'),
  ('dateutil._version',
   '/home/dumball/csvapp/.venv/lib/python3.11/site-packages/dateutil/_version.py',
   'PYMODULE'),
  ('dateutil.easter',
   '/home/dumball/csvapp/.venv/lib/python3.11/site-packages/dateutil/easter.py',
   'PYMODULE'),
  ('dateutil.parser',
   '/home/dumball/csvapp/.venv/lib/python3.11/site-packages/dateutil/parser/__init__.py',
   'PYMODULE'),
  ('dateutil.parser._parser',
   '/home/dumball/csvapp/.venv/lib/python3.11/site-packages/dateutil/parser/_parser.py',
   'PYMODULE'),
  ('dateutil.parser.isoparser',
   '/home/dumball/csvapp/.venv/lib/python3.11/site-packages/dateutil/parser/isoparser.py',
   'PYMODULE'),
  ('dateutil.relativedelta',
   '/home/dumball/csvapp/.venv/lib/python3.11/site-packages/dateutil/relativedelta.py',
   'PYMODULE'),
  ('dateutil.rrule',
   '/home/dumball/csvapp/.venv/lib/python3.11/site-packages/dateutil/rrule.py',
   'PYMODULE'),
  ('dateutil.tz',
   '/home/dumball/csvapp/.venv/lib/python3.11/site-packages/dateutil/tz/__init__.py',
   'PYMODULE'),
  ('dateutil.tz._common',
   '/home/dumball/csvapp/.venv/lib/python3.11/site-packages/dateutil/tz/_common.py',
   'PYMODULE'),
  ('dateutil.tz._factories',
   '/home/dumball/csvapp/.venv/lib/python3.11/site-packages/dateutil/tz/_factories.py',
   'PYMODULE'),
  ('dateutil.tz.tz',
   '/home/dumball/csvapp/.venv/lib/python3.11/site-packages/dateutil/tz/tz.py',
   'PYMODULE'),
  ('dateutil.tz.win',
   '/home/dumball/csvapp/.venv/lib/python3.11/site-packages/dateutil/tz/win.py',
   'PYMODULE'),
  ('dateutil.zoneinfo',
   '/home/dumball/csvapp/.venv/lib/python3.11/site-packages/dateutil/zoneinfo/__init__.py',
   'PYMODULE'),
  ('decimal', '/usr/lib/python3.11/decimal.py', 'PYMODULE'),
  ('difflib', '/usr/lib/python3.11/difflib.py', 'PYMODULE'),
  ('dis', '/usr/lib/python3.11/dis.py', 'PYMODULE'),
  ('doctest', '/usr/lib/python3.11/doctest.py', 'PYMODULE'),
  ('email', '/usr/lib/python3.11/email/__init__.py', 'PYMODULE'),
  ('email._encoded_words',
   '/usr/lib/python3.11/email/_encoded_words.py',
   'PYMODULE'),
  ('email._header_value_parser',
   '/usr/lib/python3.11/email/_header_value_parser.py',
   'PYMODULE'),
  ('email._parseaddr', '/usr/lib/python3.11/email/_parseaddr.py', 'PYMODULE'),
  ('email._policybase', '/usr/lib/python3.11/email/_policybase.py', 'PYMODULE'),
  ('email.base64mime', '/usr/lib/python3.11/email/base64mime.py', 'PYMODULE'),
  ('email.charset', '/usr/lib/python3.11/email/charset.py', 'PYMODULE'),
  ('email.contentmanager',
   '/usr/lib/python3.11/email/contentmanager.py',
   'PYMODULE'),
  ('email.encoders', '/usr/lib/python3.11/email/encoders.py', 'PYMODULE'),
  ('email.errors', '/usr/lib/python3.11/email/errors.py', 'PYMODULE'),
  ('email.feedparser', '/usr/lib/python3.11/email/feedparser.py', 'PYMODULE'),
  ('email.generator', '/usr/lib/python3.11/email/generator.py', 'PYMODULE'),
  ('email.header', '/usr/lib/python3.11/email/header.py', 'PYMODULE'),
  ('email.headerregistry',
   '/usr/lib/python3.11/email/headerregistry.py',
   'PYMODULE'),
  ('email.iterators', '/usr/lib/python3.11/email/iterators.py', 'PYMODULE'),
  ('email.message', '/usr/lib/python3.11/email/message.py', 'PYMODULE'),
  ('email.parser', '/usr/lib/python3.11/email/parser.py', 'PYMODULE'),
  ('email.policy', '/usr/lib/python3.11/email/policy.py', 'PYMODULE'),
  ('email.quoprimime', '/usr/lib/python3.11/email/quoprimime.py', 'PYMODULE'),
  ('email.utils', '/usr/lib/python3.11/email/utils.py', 'PYMODULE'),
  ('fnmatch', '/usr/lib/python3.11/fnmatch.py', 'PYMODULE'),
  ('fractions', '/usr/lib/python3.11/fractions.py', 'PYMODULE'),
  ('ftplib', '/usr/lib/python3.11/ftplib.py', 'PYMODULE'),
  ('getopt', '/usr/lib/python3.11/getopt.py', 'PYMODULE'),
  ('getpass', '/usr/lib/python3.11/getpass.py', 'PYMODULE'),
  ('gettext', '/usr/lib/python3.11/gettext.py', 'PYMODULE'),
  ('glob', '/usr/lib/python3.11/glob.py', 'PYMODULE'),
  ('gzip', '/usr/lib/python3.11/gzip.py', 'PYMODULE'),
  ('hashlib', '/usr/lib/python3.11/hashlib.py', 'PYMODULE'),
  ('hmac', '/usr/lib/python3.11/hmac.py', 'PYMODULE'),
  ('html', '/usr/lib/python3.11/html/__init__.py', 'PYMODULE'),
  ('html.entities', '/usr/lib/python3.11/html/entities.py', 'PYMODULE'),
  ('http', '/usr/lib/python3.11/http/__init__.py', 'PYMODULE'),
  ('http.client', '/usr/lib/python3.11/http/client.py', 'PYMODULE'),
  ('http.cookiejar', '/usr/lib/python3.11/http/cookiejar.py', 'PYMODULE'),
  ('http.server', '/usr/lib/python3.11/http/server.py', 'PYMODULE'),
  ('importlib', '/usr/lib/python3.11/importlib/__init__.py', 'PYMODULE'),
  ('importlib._abc', '/usr/lib/python3.11/importlib/_abc.py', 'PYMODULE'),
  ('importlib._bootstrap',
   '/usr/lib/python3.11/importlib/_bootstrap.py',
   'PYMODULE'),
  ('importlib._bootstrap_external',
   '/usr/lib/python3.11/importlib/_bootstrap_external.py',
   'PYMODULE'),
  ('importlib.abc', '/usr/lib/python3.11/importlib/abc.py', 'PYMODULE'),
  ('importlib.machinery',
   '/usr/lib/python3.11/importlib/machinery.py',
   'PYMODULE'),
  ('importlib.metadata',
   '/usr/lib/python3.11/importlib/metadata/__init__.py',
   'PYMODULE'),
  ('importlib.metadata._adapters',
   '/usr/lib/python3.11/importlib/metadata/_adapters.py',
   'PYMODULE'),
  ('importlib.metadata._collections',
   '/usr/lib/python3.11/importlib/metadata/_collections.py',
   'PYMODULE'),
  ('importlib.metadata._functools',
   '/usr/lib/python3.11/importlib/metadata/_functools.py',
   'PYMODULE'),
  ('importlib.metadata._itertools',
   '/usr/lib/python3.11/importlib/metadata/_itertools.py',
   'PYMODULE'),
  ('importlib.metadata._meta',
   '/usr/lib/python3.11/importlib/metadata/_meta.py',
   'PYMODULE'),
  ('importlib.metadata._text',
   '/usr/lib/python3.11/importlib/metadata/_text.py',
   'PYMODULE'),
  ('importlib.readers', '/usr/lib/python3.11/importlib/readers.py', 'PYMODULE'),
  ('importlib.resources',
   '/usr/lib/python3.11/importlib/resources/__init__.py',
   'PYMODULE'),
  ('importlib.resources._adapters',
   '/usr/lib/python3.11/importlib/resources/_adapters.py',
   'PYMODULE'),
  ('importlib.resources._common',
   '/usr/lib/python3.11/importlib/resources/_common.py',
   'PYMODULE'),
  ('importlib.resources._itertools',
   '/usr/lib/python3.11/importlib/resources/_itertools.py',
   'PYMODULE'),
  ('importlib.resources._legacy',
   '/usr/lib/python3.11/importlib/resources/_legacy.py',
   'PYMODULE'),
  ('importlib.resources.abc',
   '/usr/lib/python3.11/importlib/resources/abc.py',
   'PYMODULE'),
  ('importlib.resources.readers',
   '/usr/lib/python3.11/importlib/resources/readers.py',
   'PYMODULE'),
  ('importlib.util', '/usr/lib/python3.11/importlib/util.py', 'PYMODULE'),
  ('inspect', '/usr/lib/python3.11/inspect.py', 'PYMODULE'),
  ('ipaddress', '/usr/lib/python3.11/ipaddress.py', 'PYMODULE'),
  ('json', '/usr/lib/python3.11/json/__init__.py', 'PYMODULE'),
  ('json.decoder', '/usr/lib/python3.11/json/decoder.py', 'PYMODULE'),
  ('json.encoder', '/usr/lib/python3.11/json/encoder.py', 'PYMODULE'),
  ('json.scanner', '/usr/lib/python3.11/json/scanner.py', 'PYMODULE'),
  ('logging', '/usr/lib/python3.11/logging/__init__.py', 'PYMODULE'),
  ('lzma', '/usr/lib/python3.11/lzma.py', 'PYMODULE'),
  ('mimetypes', '/usr/lib/python3.11/mimetypes.py', 'PYMODULE'),
  ('multiprocessing',
   '/usr/lib/python3.11/multiprocessing/__init__.py',
   'PYMODULE'),
  ('multiprocessing.connection',
   '/usr/lib/python3.11/multiprocessing/connection.py',
   'PYMODULE'),
  ('multiprocessing.context',
   '/usr/lib/python3.11/multiprocessing/context.py',
   'PYMODULE'),
  ('multiprocessing.dummy',
   '/usr/lib/python3.11/multiprocessing/dummy/__init__.py',
   'PYMODULE'),
  ('multiprocessing.dummy.connection',
   '/usr/lib/python3.11/multiprocessing/dummy/connection.py',
   'PYMODULE'),
  ('multiprocessing.forkserver',
   '/usr/lib/python3.11/multiprocessing/forkserver.py',
   'PYMODULE'),
  ('multiprocessing.heap',
   '/usr/lib/python3.11/multiprocessing/heap.py',
   'PYMODULE'),
  ('multiprocessing.managers',
   '/usr/lib/python3.11/multiprocessing/managers.py',
   'PYMODULE'),
  ('multiprocessing.pool',
   '/usr/lib/python3.11/multiprocessing/pool.py',
   'PYMODULE'),
  ('multiprocessing.popen_fork',
   '/usr/lib/python3.11/multiprocessing/popen_fork.py',
   'PYMODULE'),
  ('multiprocessing.popen_forkserver',
   '/usr/lib/python3.11/multiprocessing/popen_forkserver.py',
   'PYMODULE'),
  ('multiprocessing.popen_spawn_posix',
   '/usr/lib/python3.11/multiprocessing/popen_spawn_posix.py',
   'PYMODULE'),
  ('multiprocessing.popen_spawn_win32',
   '/usr/lib/python3.11/multiprocessing/popen_spawn_win32.py',
   'PYMODULE'),
  ('multiprocessing.process',
   '/usr/lib/python3.11/multiprocessing/process.py',
   'PYMODULE'),
  ('multiprocessing.queues',
   '/usr/lib/python3.11/multiprocessing/queues.py',
   'PYMODULE'),
  ('multiprocessing.reduction',
   '/usr/lib/python3.11/multiprocessing/reduction.py',
   'PYMODULE'),
  ('multiprocessing.resource_sharer',
   '/usr/lib/python3.11/multiprocessing/resource_sharer.py',
   'PYMODULE'),
  ('multiprocessing.resource_tracker',
   '/usr/lib/python3.11/multiprocessing/resource_tracker.py',
   'PYMODULE'),
  ('multiprocessing.shared_memory',
   '/usr/lib/python3.11/multiprocessing/shared_memory.py',
   'PYMODULE'),
  ('multiprocessing.sharedctypes',
   '/usr/lib/python3.11/multiprocessing/sharedctypes.py',
   'PYMODULE'),
  ('multiprocessing.spawn',
   '/usr/lib/python3.11/multiprocessing/spawn.py',
   'PYMODULE'),
  ('multiprocessing.synchronize',
   '/usr/lib/python3.11/multiprocessing/synchronize.py',
   'PYMODULE'),
  ('multiprocessing.util',
   '/usr/lib/python3.11/multiprocessing/util.py',
   'PYMODULE'),
  ('netrc', '/usr/lib/python3.11/netrc.py', 'PYMODULE'),
  ('nturl2path', '/usr/lib/python3.11/nturl2path.py', 'PYMODULE'),
  ('numbers', '/usr/lib/python3.11/numbers.py', 'PYMODULE'),
  ('numpy',
   '/home/dumball/csvapp/.venv/lib/python3.11/site-packages/numpy/__init__.py',
   'PYMODULE'),
  ('numpy.__config__',
   '/home/dumball/csvapp/.venv/lib/python3.11/site-packages/numpy/__config__.py',
   'PYMODULE'),
  ('numpy._core',
   '/home/dumball/csvapp/.venv/lib/python3.11/site-packages/numpy/_core/__init__.py',
   'PYMODULE'),
  ('numpy._core._add_newdocs',
   '/home/dumball/csvapp/.venv/lib/python3.11/site-packages/numpy/_core/_add_newdocs.py',
   'PYMODULE'),
  ('numpy._core._add_newdocs_scalars',
   '/home/dumball/csvapp/.venv/lib/python3.11/site-packages/numpy/_core/_add_newdocs_scalars.py',
   'PYMODULE'),
  ('numpy._core._asarray',
   '/home/dumball/csvapp/.venv/lib/python3.11/site-packages/numpy/_core/_asarray.py',
   'PYMODULE'),
  ('numpy._core._dtype',
   '/home/dumball/csvapp/.venv/lib/python3.11/site-packages/numpy/_core/_dtype.py',
   'PYMODULE'),
  ('numpy._core._dtype_ctypes',
   '/home/dumball/csvapp/.venv/lib/python3.11/site-packages/numpy/_core/_dtype_ctypes.py',
   'PYMODULE'),
  ('numpy._core._exceptions',
   '/home/dumball/csvapp/.venv/lib/python3.11/site-packages/numpy/_core/_exceptions.py',
   'PYMODULE'),
  ('numpy._core._internal',
   '/home/dumball/csvapp/.venv/lib/python3.11/site-packages/numpy/_core/_internal.py',
   'PYMODULE'),
  ('numpy._core._machar',
   '/home/dumball/csvapp/.venv/lib/python3.11/site-packages/numpy/_core/_machar.py',
   'PYMODULE'),
  ('numpy._core._methods',
   '/home/dumball/csvapp/.venv/lib/python3.11/site-packages/numpy/_core/_methods.py',
   'PYMODULE'),
  ('numpy._core._string_helpers',
   '/home/dumball/csvapp/.venv/lib/python3.11/site-packages/numpy/_core/_string_helpers.py',
   'PYMODULE'),
  ('numpy._core._type_aliases',
   '/home/dumball/csvapp/.venv/lib/python3.11/site-packages/numpy/_core/_type_aliases.py',
   'PYMODULE'),
  ('numpy._core._ufunc_config',
   '/home/dumball/csvapp/.venv/lib/python3.11/site-packages/numpy/_core/_ufunc_config.py',
   'PYMODULE'),
  ('numpy._core.arrayprint',
   '/home/dumball/csvapp/.venv/lib/python3.11/site-packages/numpy/_core/arrayprint.py',
   'PYMODULE'),
  ('numpy._core.defchararray',
   '/home/dumball/csvapp/.venv/lib/python3.11/site-packages/numpy/_core/defchararray.py',
   'PYMODULE'),
  ('numpy._core.einsumfunc',
   '/home/dumball/csvapp/.venv/lib/python3.11/site-packages/numpy/_core/einsumfunc.py',
   'PYMODULE'),
  ('numpy._core.fromnumeric',
   '/home/dumball/csvapp/.venv/lib/python3.11/site-packages/numpy/_core/fromnumeric.py',
   'PYMODULE'),
  ('numpy._core.function_base',
   '/home/dumball/csvapp/.venv/lib/python3.11/site-packages/numpy/_core/function_base.py',
   'PYMODULE'),
  ('numpy._core.getlimits',
   '/home/dumball/csvapp/.venv/lib/python3.11/site-packages/numpy/_core/getlimits.py',
   'PYMODULE'),
  ('numpy._core.memmap',
   '/home/dumball/csvapp/.venv/lib/python3.11/site-packages/numpy/_core/memmap.py',
   'PYMODULE'),
  ('numpy._core.multiarray',
   '/home/dumball/csvapp/.venv/lib/python3.11/site-packages/numpy/_core/multiarray.py',
   'PYMODULE'),
  ('numpy._core.numeric',
   '/home/dumball/csvapp/.venv/lib/python3.11/site-packages/numpy/_core/numeric.py',
   'PYMODULE'),
  ('numpy._core.numerictypes',
   '/home/dumball/csvapp/.venv/lib/python3.11/site-packages/numpy/_core/numerictypes.py',
   'PYMODULE'),
  ('numpy._core.overrides',
   '/home/dumball/csvapp/.venv/lib/python3.11/site-packages/numpy/_core/overrides.py',
   'PYMODULE'),
  ('numpy._core.records',
   '/home/dumball/csvapp/.venv/lib/python3.11/site-packages/numpy/_core/records.py',
   'PYMODULE'),
  ('numpy._core.shape_base',
   '/home/dumball/csvapp/.venv/lib/python3.11/site-packages/numpy/_core/shape_base.py',
   'PYMODULE'),
  ('numpy._core.strings',
   '/home/dumball/csvapp/.venv/lib/python3.11/site-packages/numpy/_core/strings.py',
   'PYMODULE'),
  ('numpy._core.umath',
   '/home/dumball/csvapp/.venv/lib/python3.11/site-packages/numpy/_core/umath.py',
   'PYMODULE'),
  ('numpy._distributor_init',
   '/home/dumball/csvapp/.venv/lib/python3.11/site-packages/numpy/_distributor_init.py',
   'PYMODULE'),
  ('numpy._expired_attrs_2_0',
   '/home/dumball/csvapp/.venv/lib/python3.11/site-packages/numpy/_expired_attrs_2_0.py',
   'PYMODULE'),
  ('numpy._globals',
   '/home/dumball/csvapp/.venv/lib/python3.11/site-packages/numpy/_globals.py',
   'PYMODULE'),
  ('numpy._pytesttester',
   '/home/dumball/csvapp/.venv/lib/python3.11/site-packages/numpy/_pytesttester.py',
   'PYMODULE'),
  ('numpy._typing',
   '/home/dumball/csvapp/.venv/lib/python3.11/site-packages/numpy/_typing/__init__.py',
   'PYMODULE'),
  ('numpy._typing._add_docstring',
   '/home/dumball/csvapp/.venv/lib/python3.11/site-packages/numpy/_typing/_add_docstring.py',
   'PYMODULE'),
  ('numpy._typing._array_like',
   '/home/dumball/csvapp/.venv/lib/python3.11/site-packages/numpy/_typing/_array_like.py',
   'PYMODULE'),
  ('numpy._typing._char_codes',
   '/home/dumball/csvapp/.venv/lib/python3.11/site-packages/numpy/_typing/_char_codes.py',
   'PYMODULE'),
  ('numpy._typing._dtype_like',
   '/home/dumball/csvapp/.venv/lib/python3.11/site-packages/numpy/_typing/_dtype_like.py',
   'PYMODULE'),
  ('numpy._typing._nbit',
   '/home/dumball/csvapp/.venv/lib/python3.11/site-packages/numpy/_typing/_nbit.py',
   'PYMODULE'),
  ('numpy._typing._nested_sequence',
   '/home/dumball/csvapp/.venv/lib/python3.11/site-packages/numpy/_typing/_nested_sequence.py',
   'PYMODULE'),
  ('numpy._typing._scalars',
   '/home/dumball/csvapp/.venv/lib/python3.11/site-packages/numpy/_typing/_scalars.py',
   'PYMODULE'),
  ('numpy._typing._shape',
   '/home/dumball/csvapp/.venv/lib/python3.11/site-packages/numpy/_typing/_shape.py',
   'PYMODULE'),
  ('numpy._utils',
   '/home/dumball/csvapp/.venv/lib/python3.11/site-packages/numpy/_utils/__init__.py',
   'PYMODULE'),
  ('numpy._utils._convertions',
   '/home/dumball/csvapp/.venv/lib/python3.11/site-packages/numpy/_utils/_convertions.py',
   'PYMODULE'),
  ('numpy._utils._inspect',
   '/home/dumball/csvapp/.venv/lib/python3.11/site-packages/numpy/_utils/_inspect.py',
   'PYMODULE'),
  ('numpy.char',
   '/home/dumball/csvapp/.venv/lib/python3.11/site-packages/numpy/char/__init__.py',
   'PYMODULE'),
  ('numpy.core',
   '/home/dumball/csvapp/.venv/lib/python3.11/site-packages/numpy/core/__init__.py',
   'PYMODULE'),
  ('numpy.core._utils',
   '/home/dumball/csvapp/.venv/lib/python3.11/site-packages/numpy/core/_utils.py',
   'PYMODULE'),
  ('numpy.ctypeslib',
   '/home/dumball/csvapp/.venv/lib/python3.11/site-packages/numpy/ctypeslib.py',
   'PYMODULE'),
  ('numpy.dtypes',
   '/home/dumball/csvapp/.venv/lib/python3.11/site-packages/numpy/dtypes.py',
   'PYMODULE'),
  ('numpy.exceptions',
   '/home/dumball/csvapp/.venv/lib/python3.11/site-packages/numpy/exceptions.py',
   'PYMODULE'),
  ('numpy.fft',
   '/home/dumball/csvapp/.venv/lib/python3.11/site-packages/numpy/fft/__init__.py',
   'PYMODULE'),
  ('numpy.fft._helper',
   '/home/dumball/csvapp/.venv/lib/python3.11/site-packages/numpy/fft/_helper.py',
   'PYMODULE'),
  ('numpy.fft._pocketfft',
   '/home/dumball/csvapp/.venv/lib/python3.11/site-packages/numpy/fft/_pocketfft.py',
   'PYMODULE'),
  ('numpy.fft.helper',
   '/home/dumball/csvapp/.venv/lib/python3.11/site-packages/numpy/fft/helper.py',
   'PYMODULE'),
  ('numpy.lib',
   '/home/dumball/csvapp/.venv/lib/python3.11/site-packages/numpy/lib/__init__.py',
   'PYMODULE'),
  ('numpy.lib._array_utils_impl',
   '/home/dumball/csvapp/.venv/lib/python3.11/site-packages/numpy/lib/_array_utils_impl.py',
   'PYMODULE'),
  ('numpy.lib._arraypad_impl',
   '/home/dumball/csvapp/.venv/lib/python3.11/site-packages/numpy/lib/_arraypad_impl.py',
   'PYMODULE'),
  ('numpy.lib._arraysetops_impl',
   '/home/dumball/csvapp/.venv/lib/python3.11/site-packages/numpy/lib/_arraysetops_impl.py',
   'PYMODULE'),
  ('numpy.lib._arrayterator_impl',
   '/home/dumball/csvapp/.venv/lib/python3.11/site-packages/numpy/lib/_arrayterator_impl.py',
   'PYMODULE'),
  ('numpy.lib._datasource',
   '/home/dumball/csvapp/.venv/lib/python3.11/site-packages/numpy/lib/_datasource.py',
   'PYMODULE'),
  ('numpy.lib._function_base_impl',
   '/home/dumball/csvapp/.venv/lib/python3.11/site-packages/numpy/lib/_function_base_impl.py',
   'PYMODULE'),
  ('numpy.lib._histograms_impl',
   '/home/dumball/csvapp/.venv/lib/python3.11/site-packages/numpy/lib/_histograms_impl.py',
   'PYMODULE'),
  ('numpy.lib._index_tricks_impl',
   '/home/dumball/csvapp/.venv/lib/python3.11/site-packages/numpy/lib/_index_tricks_impl.py',
   'PYMODULE'),
  ('numpy.lib._iotools',
   '/home/dumball/csvapp/.venv/lib/python3.11/site-packages/numpy/lib/_iotools.py',
   'PYMODULE'),
  ('numpy.lib._nanfunctions_impl',
   '/home/dumball/csvapp/.venv/lib/python3.11/site-packages/numpy/lib/_nanfunctions_impl.py',
   'PYMODULE'),
  ('numpy.lib._npyio_impl',
   '/home/dumball/csvapp/.venv/lib/python3.11/site-packages/numpy/lib/_npyio_impl.py',
   'PYMODULE'),
  ('numpy.lib._polynomial_impl',
   '/home/dumball/csvapp/.venv/lib/python3.11/site-packages/numpy/lib/_polynomial_impl.py',
   'PYMODULE'),
  ('numpy.lib._scimath_impl',
   '/home/dumball/csvapp/.venv/lib/python3.11/site-packages/numpy/lib/_scimath_impl.py',
   'PYMODULE'),
  ('numpy.lib._shape_base_impl',
   '/home/dumball/csvapp/.venv/lib/python3.11/site-packages/numpy/lib/_shape_base_impl.py',
   'PYMODULE'),
  ('numpy.lib._stride_tricks_impl',
   '/home/dumball/csvapp/.venv/lib/python3.11/site-packages/numpy/lib/_stride_tricks_impl.py',
   'PYMODULE'),
  ('numpy.lib._twodim_base_impl',
   '/home/dumball/csvapp/.venv/lib/python3.11/site-packages/numpy/lib/_twodim_base_impl.py',
   'PYMODULE'),
  ('numpy.lib._type_check_impl',
   '/home/dumball/csvapp/.venv/lib/python3.11/site-packages/numpy/lib/_type_check_impl.py',
   'PYMODULE'),
  ('numpy.lib._ufunclike_impl',
   '/home/dumball/csvapp/.venv/lib/python3.11/site-packages/numpy/lib/_ufunclike_impl.py',
   'PYMODULE'),
  ('numpy.lib._utils_impl',
   '/home/dumball/csvapp/.venv/lib/python3.11/site-packages/numpy/lib/_utils_impl.py',
   'PYMODULE'),
  ('numpy.lib._version',
   '/home/dumball/csvapp/.venv/lib/python3.11/site-packages/numpy/lib/_version.py',
   'PYMODULE'),
  ('numpy.lib.array_utils',
   '/home/dumball/csvapp/.venv/lib/python3.11/site-packages/numpy/lib/array_utils.py',
   'PYMODULE'),
  ('numpy.lib.format',
   '/home/dumball/csvapp/.venv/lib/python3.11/site-packages/numpy/lib/format.py',
   'PYMODULE'),
  ('numpy.lib.introspect',
   '/home/dumball/csvapp/.venv/lib/python3.11/site-packages/numpy/lib/introspect.py',
   'PYMODULE'),
  ('numpy.lib.mixins',
   '/home/dumball/csvapp/.venv/lib/python3.11/site-packages/numpy/lib/mixins.py',
   'PYMODULE'),
  ('numpy.lib.npyio',
   '/home/dumball/csvapp/.venv/lib/python3.11/site-packages/numpy/lib/npyio.py',
   'PYMODULE'),
  ('numpy.lib.recfunctions',
   '/home/dumball/csvapp/.venv/lib/python3.11/site-packages/numpy/lib/recfunctions.py',
   'PYMODULE'),
  ('numpy.lib.scimath',
   '/home/dumball/csvapp/.venv/lib/python3.11/site-packages/numpy/lib/scimath.py',
   'PYMODULE'),
  ('numpy.lib.stride_tricks',
   '/home/dumball/csvapp/.venv/lib/python3.11/site-packages/numpy/lib/stride_tricks.py',
   'PYMODULE'),
  ('numpy.linalg',
   '/home/dumball/csvapp/.venv/lib/python3.11/site-packages/numpy/linalg/__init__.py',
   'PYMODULE'),
  ('numpy.linalg._linalg',
   '/home/dumball/csvapp/.venv/lib/python3.11/site-packages/numpy/linalg/_linalg.py',
   'PYMODULE'),
  ('numpy.linalg.linalg',
   '/home/dumball/csvapp/.venv/lib/python3.11/site-packages/numpy/linalg/linalg.py',
   'PYMODULE'),
  ('numpy.ma',
   '/home/dumball/csvapp/.venv/lib/python3.11/site-packages/numpy/ma/__init__.py',
   'PYMODULE'),
  ('numpy.ma.core',
   '/home/dumball/csvapp/.venv/lib/python3.11/site-packages/numpy/ma/core.py',
   'PYMODULE'),
  ('numpy.ma.extras',
   '/home/dumball/csvapp/.venv/lib/python3.11/site-packages/numpy/ma/extras.py',
   'PYMODULE'),
  ('numpy.ma.mrecords',
   '/home/dumball/csvapp/.venv/lib/python3.11/site-packages/numpy/ma/mrecords.py',
   'PYMODULE'),
  ('numpy.matlib',
   '/home/dumball/csvapp/.venv/lib/python3.11/site-packages/numpy/matlib.py',
   'PYMODULE'),
  ('numpy.matrixlib',
   '/home/dumball/csvapp/.venv/lib/python3.11/site-packages/numpy/matrixlib/__init__.py',
   'PYMODULE'),
  ('numpy.matrixlib.defmatrix',
   '/home/dumball/csvapp/.venv/lib/python3.11/site-packages/numpy/matrixlib/defmatrix.py',
   'PYMODULE'),
  ('numpy.polynomial',
   '/home/dumball/csvapp/.venv/lib/python3.11/site-packages/numpy/polynomial/__init__.py',
   'PYMODULE'),
  ('numpy.polynomial._polybase',
   '/home/dumball/csvapp/.venv/lib/python3.11/site-packages/numpy/polynomial/_polybase.py',
   'PYMODULE'),
  ('numpy.polynomial.chebyshev',
   '/home/dumball/csvapp/.venv/lib/python3.11/site-packages/numpy/polynomial/chebyshev.py',
   'PYMODULE'),
  ('numpy.polynomial.hermite',
   '/home/dumball/csvapp/.venv/lib/python3.11/site-packages/numpy/polynomial/hermite.py',
   'PYMODULE'),
  ('numpy.polynomial.hermite_e',
   '/home/dumball/csvapp/.venv/lib/python3.11/site-packages/numpy/polynomial/hermite_e.py',
   'PYMODULE'),
  ('numpy.polynomial.laguerre',
   '/home/dumball/csvapp/.venv/lib/python3.11/site-packages/numpy/polynomial/laguerre.py',
   'PYMODULE'),
  ('numpy.polynomial.legendre',
   '/home/dumball/csvapp/.venv/lib/python3.11/site-packages/numpy/polynomial/legendre.py',
   'PYMODULE'),
  ('numpy.polynomial.polynomial',
   '/home/dumball/csvapp/.venv/lib/python3.11/site-packages/numpy/polynomial/polynomial.py',
   'PYMODULE'),
  ('numpy.polynomial.polyutils',
   '/home/dumball/csvapp/.venv/lib/python3.11/site-packages/numpy/polynomial/polyutils.py',
   'PYMODULE'),
  ('numpy.random',
   '/home/dumball/csvapp/.venv/lib/python3.11/site-packages/numpy/random/__init__.py',
   'PYMODULE'),
  ('numpy.random._pickle',
   '/home/dumball/csvapp/.venv/lib/python3.11/site-packages/numpy/random/_pickle.py',
   'PYMODULE'),
  ('numpy.rec',
   '/home/dumball/csvapp/.venv/lib/python3.11/site-packages/numpy/rec/__init__.py',
   'PYMODULE'),
  ('numpy.strings',
   '/home/dumball/csvapp/.venv/lib/python3.11/site-packages/numpy/strings/__init__.py',
   'PYMODULE'),
  ('numpy.testing',
   '/home/dumball/csvapp/.venv/lib/python3.11/site-packages/numpy/testing/__init__.py',
   'PYMODULE'),
  ('numpy.testing._private',
   '/home/dumball/csvapp/.venv/lib/python3.11/site-packages/numpy/testing/_private/__init__.py',
   'PYMODULE'),
  ('numpy.testing._private.extbuild',
   '/home/dumball/csvapp/.venv/lib/python3.11/site-packages/numpy/testing/_private/extbuild.py',
   'PYMODULE'),
  ('numpy.testing._private.utils',
   '/home/dumball/csvapp/.venv/lib/python3.11/site-packages/numpy/testing/_private/utils.py',
   'PYMODULE'),
  ('numpy.testing.overrides',
   '/home/dumball/csvapp/.venv/lib/python3.11/site-packages/numpy/testing/overrides.py',
   'PYMODULE'),
  ('numpy.typing',
   '/home/dumball/csvapp/.venv/lib/python3.11/site-packages/numpy/typing/__init__.py',
   'PYMODULE'),
  ('numpy.version',
   '/home/dumball/csvapp/.venv/lib/python3.11/site-packages/numpy/version.py',
   'PYMODULE'),
  ('opcode', '/usr/lib/python3.11/opcode.py', 'PYMODULE'),
  ('packaging',
   '/home/dumball/csvapp/.venv/lib/python3.11/site-packages/packaging/__init__.py',
   'PYMODULE'),
  ('packaging._elffile',
   '/home/dumball/csvapp/.venv/lib/python3.11/site-packages/packaging/_elffile.py',
   'PYMODULE'),
  ('packaging._manylinux',
   '/home/dumball/csvapp/.venv/lib/python3.11/site-packages/packaging/_manylinux.py',
   'PYMODULE'),
  ('packaging._musllinux',
   '/home/dumball/csvapp/.venv/lib/python3.11/site-packages/packaging/_musllinux.py',
   'PYMODULE'),
  ('packaging._parser',
   '/home/dumball/csvapp/.venv/lib/python3.11/site-packages/packaging/_parser.py',
   'PYMODULE'),
  ('packaging._structures',
   '/home/dumball/csvapp/.venv/lib/python3.11/site-packages/packaging/_structures.py',
   'PYMODULE'),
  ('packaging._tokenizer',
   '/home/dumball/csvapp/.venv/lib/python3.11/site-packages/packaging/_tokenizer.py',
   'PYMODULE'),
  ('packaging.markers',
   '/home/dumball/csvapp/.venv/lib/python3.11/site-packages/packaging/markers.py',
   'PYMODULE'),
  ('packaging.metadata',
   '/home/dumball/csvapp/.venv/lib/python3.11/site-packages/packaging/metadata.py',
   'PYMODULE'),
  ('packaging.requirements',
   '/home/dumball/csvapp/.venv/lib/python3.11/site-packages/packaging/requirements.py',
   'PYMODULE'),
  ('packaging.specifiers',
   '/home/dumball/csvapp/.venv/lib/python3.11/site-packages/packaging/specifiers.py',
   'PYMODULE'),
  ('packaging.tags',
   '/home/dumball/csvapp/.venv/lib/python3.11/site-packages/packaging/tags.py',
   'PYMODULE'),
  ('packaging.utils',
   '/home/dumball/csvapp/.venv/lib/python3.11/site-packages/packaging/utils.py',
   'PYMODULE'),
  ('packaging.version',
   '/home/dumball/csvapp/.venv/lib/python3.11/site-packages/packaging/version.py',
   'PYMODULE'),
  ('pandas',
   '/home/dumball/csvapp/.venv/lib/python3.11/site-packages/pandas/__init__.py',
   'PYMODULE'),
  ('pandas._config',
   '/home/dumball/csvapp/.venv/lib/python3.11/site-packages/pandas/_config/__init__.py',
   'PYMODULE'),
  ('pandas._config.config',
   '/home/dumball/csvapp/.venv/lib/python3.11/site-packages/pandas/_config/config.py',
   'PYMODULE'),
  ('pandas._config.dates',
   '/home/dumball/csvapp/.venv/lib/python3.11/site-packages/pandas/_config/dates.py',
   'PYMODULE'),
  ('pandas._config.display',
   '/home/dumball/csvapp/.venv/lib/python3.11/site-packages/pandas/_config/display.py',
   'PYMODULE'),
  ('pandas._config.localization',
   '/home/dumball/csvapp/.venv/lib/python3.11/site-packages/pandas/_config/localization.py',
   'PYMODULE'),
  ('pandas._libs',
   '/home/dumball/csvapp/.venv/lib/python3.11/site-packages/pandas/_libs/__init__.py',
   'PYMODULE'),
  ('pandas._libs.tslibs',
   '/home/dumball/csvapp/.venv/lib/python3.11/site-packages/pandas/_libs/tslibs/__init__.py',
   'PYMODULE'),
  ('pandas._libs.window',
   '/home/dumball/csvapp/.venv/lib/python3.11/site-packages/pandas/_libs/window/__init__.py',
   'PYMODULE'),
  ('pandas._testing',
   '/home/dumball/csvapp/.venv/lib/python3.11/site-packages/pandas/_testing/__init__.py',
   'PYMODULE'),
  ('pandas._testing._io',
   '/home/dumball/csvapp/.venv/lib/python3.11/site-packages/pandas/_testing/_io.py',
   'PYMODULE'),
  ('pandas._testing._warnings',
   '/home/dumball/csvapp/.venv/lib/python3.11/site-packages/pandas/_testing/_warnings.py',
   'PYMODULE'),
  ('pandas._testing.asserters',
   '/home/dumball/csvapp/.venv/lib/python3.11/site-packages/pandas/_testing/asserters.py',
   'PYMODULE'),
  ('pandas._testing.compat',
   '/home/dumball/csvapp/.venv/lib/python3.11/site-packages/pandas/_testing/compat.py',
   'PYMODULE'),
  ('pandas._testing.contexts',
   '/home/dumball/csvapp/.venv/lib/python3.11/site-packages/pandas/_testing/contexts.py',
   'PYMODULE'),
  ('pandas._typing',
   '/home/dumball/csvapp/.venv/lib/python3.11/site-packages/pandas/_typing.py',
   'PYMODULE'),
  ('pandas._version',
   '/home/dumball/csvapp/.venv/lib/python3.11/site-packages/pandas/_version.py',
   'PYMODULE'),
  ('pandas._version_meson',
   '/home/dumball/csvapp/.venv/lib/python3.11/site-packages/pandas/_version_meson.py',
   'PYMODULE'),
  ('pandas.api',
   '/home/dumball/csvapp/.venv/lib/python3.11/site-packages/pandas/api/__init__.py',
   'PYMODULE'),
  ('pandas.api.extensions',
   '/home/dumball/csvapp/.venv/lib/python3.11/site-packages/pandas/api/extensions/__init__.py',
   'PYMODULE'),
  ('pandas.api.indexers',
   '/home/dumball/csvapp/.venv/lib/python3.11/site-packages/pandas/api/indexers/__init__.py',
   'PYMODULE'),
  ('pandas.api.interchange',
   '/home/dumball/csvapp/.venv/lib/python3.11/site-packages/pandas/api/interchange/__init__.py',
   'PYMODULE'),
  ('pandas.api.types',
   '/home/dumball/csvapp/.venv/lib/python3.11/site-packages/pandas/api/types/__init__.py',
   'PYMODULE'),
  ('pandas.api.typing',
   '/home/dumball/csvapp/.venv/lib/python3.11/site-packages/pandas/api/typing/__init__.py',
   'PYMODULE'),
  ('pandas.arrays',
   '/home/dumball/csvapp/.venv/lib/python3.11/site-packages/pandas/arrays/__init__.py',
   'PYMODULE'),
  ('pandas.compat',
   '/home/dumball/csvapp/.venv/lib/python3.11/site-packages/pandas/compat/__init__.py',
   'PYMODULE'),
  ('pandas.compat._constants',
   '/home/dumball/csvapp/.venv/lib/python3.11/site-packages/pandas/compat/_constants.py',
   'PYMODULE'),
  ('pandas.compat._optional',
   '/home/dumball/csvapp/.venv/lib/python3.11/site-packages/pandas/compat/_optional.py',
   'PYMODULE'),
  ('pandas.compat.compressors',
   '/home/dumball/csvapp/.venv/lib/python3.11/site-packages/pandas/compat/compressors.py',
   'PYMODULE'),
  ('pandas.compat.numpy',
   '/home/dumball/csvapp/.venv/lib/python3.11/site-packages/pandas/compat/numpy/__init__.py',
   'PYMODULE'),
  ('pandas.compat.numpy.function',
   '/home/dumball/csvapp/.venv/lib/python3.11/site-packages/pandas/compat/numpy/function.py',
   'PYMODULE'),
  ('pandas.compat.pickle_compat',
   '/home/dumball/csvapp/.venv/lib/python3.11/site-packages/pandas/compat/pickle_compat.py',
   'PYMODULE'),
  ('pandas.compat.pyarrow',
   '/home/dumball/csvapp/.venv/lib/python3.11/site-packages/pandas/compat/pyarrow.py',
   'PYMODULE'),
  ('pandas.core',
   '/home/dumball/csvapp/.venv/lib/python3.11/site-packages/pandas/core/__init__.py',
   'PYMODULE'),
  ('pandas.core._numba',
   '/home/dumball/csvapp/.venv/lib/python3.11/site-packages/pandas/core/_numba/__init__.py',
   'PYMODULE'),
  ('pandas.core._numba.executor',
   '/home/dumball/csvapp/.venv/lib/python3.11/site-packages/pandas/core/_numba/executor.py',
   'PYMODULE'),
  ('pandas.core._numba.extensions',
   '/home/dumball/csvapp/.venv/lib/python3.11/site-packages/pandas/core/_numba/extensions.py',
   'PYMODULE'),
  ('pandas.core._numba.kernels',
   '/home/dumball/csvapp/.venv/lib/python3.11/site-packages/pandas/core/_numba/kernels/__init__.py',
   'PYMODULE'),
  ('pandas.core._numba.kernels.mean_',
   '/home/dumball/csvapp/.venv/lib/python3.11/site-packages/pandas/core/_numba/kernels/mean_.py',
   'PYMODULE'),
  ('pandas.core._numba.kernels.min_max_',
   '/home/dumball/csvapp/.venv/lib/python3.11/site-packages/pandas/core/_numba/kernels/min_max_.py',
   'PYMODULE'),
  ('pandas.core._numba.kernels.shared',
   '/home/dumball/csvapp/.venv/lib/python3.11/site-packages/pandas/core/_numba/kernels/shared.py',
   'PYMODULE'),
  ('pandas.core._numba.kernels.sum_',
   '/home/dumball/csvapp/.venv/lib/python3.11/site-packages/pandas/core/_numba/kernels/sum_.py',
   'PYMODULE'),
  ('pandas.core._numba.kernels.var_',
   '/home/dumball/csvapp/.venv/lib/python3.11/site-packages/pandas/core/_numba/kernels/var_.py',
   'PYMODULE'),
  ('pandas.core.accessor',
   '/home/dumball/csvapp/.venv/lib/python3.11/site-packages/pandas/core/accessor.py',
   'PYMODULE'),
  ('pandas.core.algorithms',
   '/home/dumball/csvapp/.venv/lib/python3.11/site-packages/pandas/core/algorithms.py',
   'PYMODULE'),
  ('pandas.core.api',
   '/home/dumball/csvapp/.venv/lib/python3.11/site-packages/pandas/core/api.py',
   'PYMODULE'),
  ('pandas.core.apply',
   '/home/dumball/csvapp/.venv/lib/python3.11/site-packages/pandas/core/apply.py',
   'PYMODULE'),
  ('pandas.core.array_algos',
   '/home/dumball/csvapp/.venv/lib/python3.11/site-packages/pandas/core/array_algos/__init__.py',
   'PYMODULE'),
  ('pandas.core.array_algos.datetimelike_accumulations',
   '/home/dumball/csvapp/.venv/lib/python3.11/site-packages/pandas/core/array_algos/datetimelike_accumulations.py',
   'PYMODULE'),
  ('pandas.core.array_algos.masked_accumulations',
   '/home/dumball/csvapp/.venv/lib/python3.11/site-packages/pandas/core/array_algos/masked_accumulations.py',
   'PYMODULE'),
  ('pandas.core.array_algos.masked_reductions',
   '/home/dumball/csvapp/.venv/lib/python3.11/site-packages/pandas/core/array_algos/masked_reductions.py',
   'PYMODULE'),
  ('pandas.core.array_algos.putmask',
   '/home/dumball/csvapp/.venv/lib/python3.11/site-packages/pandas/core/array_algos/putmask.py',
   'PYMODULE'),
  ('pandas.core.array_algos.quantile',
   '/home/dumball/csvapp/.venv/lib/python3.11/site-packages/pandas/core/array_algos/quantile.py',
   'PYMODULE'),
  ('pandas.core.array_algos.replace',
   '/home/dumball/csvapp/.venv/lib/python3.11/site-packages/pandas/core/array_algos/replace.py',
   'PYMODULE'),
  ('pandas.core.array_algos.take',
   '/home/dumball/csvapp/.venv/lib/python3.11/site-packages/pandas/core/array_algos/take.py',
   'PYMODULE'),
  ('pandas.core.array_algos.transforms',
   '/home/dumball/csvapp/.venv/lib/python3.11/site-packages/pandas/core/array_algos/transforms.py',
   'PYMODULE'),
  ('pandas.core.arraylike',
   '/home/dumball/csvapp/.venv/lib/python3.11/site-packages/pandas/core/arraylike.py',
   'PYMODULE'),
  ('pandas.core.arrays',
   '/home/dumball/csvapp/.venv/lib/python3.11/site-packages/pandas/core/arrays/__init__.py',
   'PYMODULE'),
  ('pandas.core.arrays._arrow_string_mixins',
   '/home/dumball/csvapp/.venv/lib/python3.11/site-packages/pandas/core/arrays/_arrow_string_mixins.py',
   'PYMODULE'),
  ('pandas.core.arrays._mixins',
   '/home/dumball/csvapp/.venv/lib/python3.11/site-packages/pandas/core/arrays/_mixins.py',
   'PYMODULE'),
  ('pandas.core.arrays._ranges',
   '/home/dumball/csvapp/.venv/lib/python3.11/site-packages/pandas/core/arrays/_ranges.py',
   'PYMODULE'),
  ('pandas.core.arrays._utils',
   '/home/dumball/csvapp/.venv/lib/python3.11/site-packages/pandas/core/arrays/_utils.py',
   'PYMODULE'),
  ('pandas.core.arrays.arrow',
   '/home/dumball/csvapp/.venv/lib/python3.11/site-packages/pandas/core/arrays/arrow/__init__.py',
   'PYMODULE'),
  ('pandas.core.arrays.arrow._arrow_utils',
   '/home/dumball/csvapp/.venv/lib/python3.11/site-packages/pandas/core/arrays/arrow/_arrow_utils.py',
   'PYMODULE'),
  ('pandas.core.arrays.arrow.accessors',
   '/home/dumball/csvapp/.venv/lib/python3.11/site-packages/pandas/core/arrays/arrow/accessors.py',
   'PYMODULE'),
  ('pandas.core.arrays.arrow.array',
   '/home/dumball/csvapp/.venv/lib/python3.11/site-packages/pandas/core/arrays/arrow/array.py',
   'PYMODULE'),
  ('pandas.core.arrays.arrow.extension_types',
   '/home/dumball/csvapp/.venv/lib/python3.11/site-packages/pandas/core/arrays/arrow/extension_types.py',
   'PYMODULE'),
  ('pandas.core.arrays.base',
   '/home/dumball/csvapp/.venv/lib/python3.11/site-packages/pandas/core/arrays/base.py',
   'PYMODULE'),
  ('pandas.core.arrays.boolean',
   '/home/dumball/csvapp/.venv/lib/python3.11/site-packages/pandas/core/arrays/boolean.py',
   'PYMODULE'),
  ('pandas.core.arrays.categorical',
   '/home/dumball/csvapp/.venv/lib/python3.11/site-packages/pandas/core/arrays/categorical.py',
   'PYMODULE'),
  ('pandas.core.arrays.datetimelike',
   '/home/dumball/csvapp/.venv/lib/python3.11/site-packages/pandas/core/arrays/datetimelike.py',
   'PYMODULE'),
  ('pandas.core.arrays.datetimes',
   '/home/dumball/csvapp/.venv/lib/python3.11/site-packages/pandas/core/arrays/datetimes.py',
   'PYMODULE'),
  ('pandas.core.arrays.floating',
   '/home/dumball/csvapp/.venv/lib/python3.11/site-packages/pandas/core/arrays/floating.py',
   'PYMODULE'),
  ('pandas.core.arrays.integer',
   '/home/dumball/csvapp/.venv/lib/python3.11/site-packages/pandas/core/arrays/integer.py',
   'PYMODULE'),
  ('pandas.core.arrays.interval',
   '/home/dumball/csvapp/.venv/lib/python3.11/site-packages/pandas/core/arrays/interval.py',
   'PYMODULE'),
  ('pandas.core.arrays.masked',
   '/home/dumball/csvapp/.venv/lib/python3.11/site-packages/pandas/core/arrays/masked.py',
   'PYMODULE'),
  ('pandas.core.arrays.numeric',
   '/home/dumball/csvapp/.venv/lib/python3.11/site-packages/pandas/core/arrays/numeric.py',
   'PYMODULE'),
  ('pandas.core.arrays.numpy_',
   '/home/dumball/csvapp/.venv/lib/python3.11/site-packages/pandas/core/arrays/numpy_.py',
   'PYMODULE'),
  ('pandas.core.arrays.period',
   '/home/dumball/csvapp/.venv/lib/python3.11/site-packages/pandas/core/arrays/period.py',
   'PYMODULE'),
  ('pandas.core.arrays.sparse',
   '/home/dumball/csvapp/.venv/lib/python3.11/site-packages/pandas/core/arrays/sparse/__init__.py',
   'PYMODULE'),
  ('pandas.core.arrays.sparse.accessor',
   '/home/dumball/csvapp/.venv/lib/python3.11/site-packages/pandas/core/arrays/sparse/accessor.py',
   'PYMODULE'),
  ('pandas.core.arrays.sparse.array',
   '/home/dumball/csvapp/.venv/lib/python3.11/site-packages/pandas/core/arrays/sparse/array.py',
   'PYMODULE'),
  ('pandas.core.arrays.sparse.scipy_sparse',
   '/home/dumball/csvapp/.venv/lib/python3.11/site-packages/pandas/core/arrays/sparse/scipy_sparse.py',
   'PYMODULE'),
  ('pandas.core.arrays.string_',
   '/home/dumball/csvapp/.venv/lib/python3.11/site-packages/pandas/core/arrays/string_.py',
   'PYMODULE'),
  ('pandas.core.arrays.string_arrow',
   '/home/dumball/csvapp/.venv/lib/python3.11/site-packages/pandas/core/arrays/string_arrow.py',
   'PYMODULE'),
  ('pandas.core.arrays.timedeltas',
   '/home/dumball/csvapp/.venv/lib/python3.11/site-packages/pandas/core/arrays/timedeltas.py',
   'PYMODULE'),
  ('pandas.core.base',
   '/home/dumball/csvapp/.venv/lib/python3.11/site-packages/pandas/core/base.py',
   'PYMODULE'),
  ('pandas.core.common',
   '/home/dumball/csvapp/.venv/lib/python3.11/site-packages/pandas/core/common.py',
   'PYMODULE'),
  ('pandas.core.computation',
   '/home/dumball/csvapp/.venv/lib/python3.11/site-packages/pandas/core/computation/__init__.py',
   'PYMODULE'),
  ('pandas.core.computation.align',
   '/home/dumball/csvapp/.venv/lib/python3.11/site-packages/pandas/core/computation/align.py',
   'PYMODULE'),
  ('pandas.core.computation.api',
   '/home/dumball/csvapp/.venv/lib/python3.11/site-packages/pandas/core/computation/api.py',
   'PYMODULE'),
  ('pandas.core.computation.check',
   '/home/dumball/csvapp/.venv/lib/python3.11/site-packages/pandas/core/computation/check.py',
   'PYMODULE'),
  ('pandas.core.computation.common',
   '/home/dumball/csvapp/.venv/lib/python3.11/site-packages/pandas/core/computation/common.py',
   'PYMODULE'),
  ('pandas.core.computation.engines',
   '/home/dumball/csvapp/.venv/lib/python3.11/site-packages/pandas/core/computation/engines.py',
   'PYMODULE'),
  ('pandas.core.computation.eval',
   '/home/dumball/csvapp/.venv/lib/python3.11/site-packages/pandas/core/computation/eval.py',
   'PYMODULE'),
  ('pandas.core.computation.expr',
   '/home/dumball/csvapp/.venv/lib/python3.11/site-packages/pandas/core/computation/expr.py',
   'PYMODULE'),
  ('pandas.core.computation.expressions',
   '/home/dumball/csvapp/.venv/lib/python3.11/site-packages/pandas/core/computation/expressions.py',
   'PYMODULE'),
  ('pandas.core.computation.ops',
   '/home/dumball/csvapp/.venv/lib/python3.11/site-packages/pandas/core/computation/ops.py',
   'PYMODULE'),
  ('pandas.core.computation.parsing',
   '/home/dumball/csvapp/.venv/lib/python3.11/site-packages/pandas/core/computation/parsing.py',
   'PYMODULE'),
  ('pandas.core.computation.pytables',
   '/home/dumball/csvapp/.venv/lib/python3.11/site-packages/pandas/core/computation/pytables.py',
   'PYMODULE'),
  ('pandas.core.computation.scope',
   '/home/dumball/csvapp/.venv/lib/python3.11/site-packages/pandas/core/computation/scope.py',
   'PYMODULE'),
  ('pandas.core.config_init',
   '/home/dumball/csvapp/.venv/lib/python3.11/site-packages/pandas/core/config_init.py',
   'PYMODULE'),
  ('pandas.core.construction',
   '/home/dumball/csvapp/.venv/lib/python3.11/site-packages/pandas/core/construction.py',
   'PYMODULE'),
  ('pandas.core.dtypes',
   '/home/dumball/csvapp/.venv/lib/python3.11/site-packages/pandas/core/dtypes/__init__.py',
   'PYMODULE'),
  ('pandas.core.dtypes.api',
   '/home/dumball/csvapp/.venv/lib/python3.11/site-packages/pandas/core/dtypes/api.py',
   'PYMODULE'),
  ('pandas.core.dtypes.astype',
   '/home/dumball/csvapp/.venv/lib/python3.11/site-packages/pandas/core/dtypes/astype.py',
   'PYMODULE'),
  ('pandas.core.dtypes.base',
   '/home/dumball/csvapp/.venv/lib/python3.11/site-packages/pandas/core/dtypes/base.py',
   'PYMODULE'),
  ('pandas.core.dtypes.cast',
   '/home/dumball/csvapp/.venv/lib/python3.11/site-packages/pandas/core/dtypes/cast.py',
   'PYMODULE'),
  ('pandas.core.dtypes.common',
   '/home/dumball/csvapp/.venv/lib/python3.11/site-packages/pandas/core/dtypes/common.py',
   'PYMODULE'),
  ('pandas.core.dtypes.concat',
   '/home/dumball/csvapp/.venv/lib/python3.11/site-packages/pandas/core/dtypes/concat.py',
   'PYMODULE'),
  ('pandas.core.dtypes.dtypes',
   '/home/dumball/csvapp/.venv/lib/python3.11/site-packages/pandas/core/dtypes/dtypes.py',
   'PYMODULE'),
  ('pandas.core.dtypes.generic',
   '/home/dumball/csvapp/.venv/lib/python3.11/site-packages/pandas/core/dtypes/generic.py',
   'PYMODULE'),
  ('pandas.core.dtypes.inference',
   '/home/dumball/csvapp/.venv/lib/python3.11/site-packages/pandas/core/dtypes/inference.py',
   'PYMODULE'),
  ('pandas.core.dtypes.missing',
   '/home/dumball/csvapp/.venv/lib/python3.11/site-packages/pandas/core/dtypes/missing.py',
   'PYMODULE'),
  ('pandas.core.flags',
   '/home/dumball/csvapp/.venv/lib/python3.11/site-packages/pandas/core/flags.py',
   'PYMODULE'),
  ('pandas.core.frame',
   '/home/dumball/csvapp/.venv/lib/python3.11/site-packages/pandas/core/frame.py',
   'PYMODULE'),
  ('pandas.core.generic',
   '/home/dumball/csvapp/.venv/lib/python3.11/site-packages/pandas/core/generic.py',
   'PYMODULE'),
  ('pandas.core.groupby',
   '/home/dumball/csvapp/.venv/lib/python3.11/site-packages/pandas/core/groupby/__init__.py',
   'PYMODULE'),
  ('pandas.core.groupby.base',
   '/home/dumball/csvapp/.venv/lib/python3.11/site-packages/pandas/core/groupby/base.py',
   'PYMODULE'),
  ('pandas.core.groupby.categorical',
   '/home/dumball/csvapp/.venv/lib/python3.11/site-packages/pandas/core/groupby/categorical.py',
   'PYMODULE'),
  ('pandas.core.groupby.generic',
   '/home/dumball/csvapp/.venv/lib/python3.11/site-packages/pandas/core/groupby/generic.py',
   'PYMODULE'),
  ('pandas.core.groupby.groupby',
   '/home/dumball/csvapp/.venv/lib/python3.11/site-packages/pandas/core/groupby/groupby.py',
   'PYMODULE'),
  ('pandas.core.groupby.grouper',
   '/home/dumball/csvapp/.venv/lib/python3.11/site-packages/pandas/core/groupby/grouper.py',
   'PYMODULE'),
  ('pandas.core.groupby.indexing',
   '/home/dumball/csvapp/.venv/lib/python3.11/site-packages/pandas/core/groupby/indexing.py',
   'PYMODULE'),
  ('pandas.core.groupby.numba_',
   '/home/dumball/csvapp/.venv/lib/python3.11/site-packages/pandas/core/groupby/numba_.py',
   'PYMODULE'),
  ('pandas.core.groupby.ops',
   '/home/dumball/csvapp/.venv/lib/python3.11/site-packages/pandas/core/groupby/ops.py',
   'PYMODULE'),
  ('pandas.core.indexers',
   '/home/dumball/csvapp/.venv/lib/python3.11/site-packages/pandas/core/indexers/__init__.py',
   'PYMODULE'),
  ('pandas.core.indexers.objects',
   '/home/dumball/csvapp/.venv/lib/python3.11/site-packages/pandas/core/indexers/objects.py',
   'PYMODULE'),
  ('pandas.core.indexers.utils',
   '/home/dumball/csvapp/.venv/lib/python3.11/site-packages/pandas/core/indexers/utils.py',
   'PYMODULE'),
  ('pandas.core.indexes',
   '/home/dumball/csvapp/.venv/lib/python3.11/site-packages/pandas/core/indexes/__init__.py',
   'PYMODULE'),
  ('pandas.core.indexes.accessors',
   '/home/dumball/csvapp/.venv/lib/python3.11/site-packages/pandas/core/indexes/accessors.py',
   'PYMODULE'),
  ('pandas.core.indexes.api',
   '/home/dumball/csvapp/.venv/lib/python3.11/site-packages/pandas/core/indexes/api.py',
   'PYMODULE'),
  ('pandas.core.indexes.base',
   '/home/dumball/csvapp/.venv/lib/python3.11/site-packages/pandas/core/indexes/base.py',
   'PYMODULE'),
  ('pandas.core.indexes.category',
   '/home/dumball/csvapp/.venv/lib/python3.11/site-packages/pandas/core/indexes/category.py',
   'PYMODULE'),
  ('pandas.core.indexes.datetimelike',
   '/home/dumball/csvapp/.venv/lib/python3.11/site-packages/pandas/core/indexes/datetimelike.py',
   'PYMODULE'),
  ('pandas.core.indexes.datetimes',
   '/home/dumball/csvapp/.venv/lib/python3.11/site-packages/pandas/core/indexes/datetimes.py',
   'PYMODULE'),
  ('pandas.core.indexes.extension',
   '/home/dumball/csvapp/.venv/lib/python3.11/site-packages/pandas/core/indexes/extension.py',
   'PYMODULE'),
  ('pandas.core.indexes.frozen',
   '/home/dumball/csvapp/.venv/lib/python3.11/site-packages/pandas/core/indexes/frozen.py',
   'PYMODULE'),
  ('pandas.core.indexes.interval',
   '/home/dumball/csvapp/.venv/lib/python3.11/site-packages/pandas/core/indexes/interval.py',
   'PYMODULE'),
  ('pandas.core.indexes.multi',
   '/home/dumball/csvapp/.venv/lib/python3.11/site-packages/pandas/core/indexes/multi.py',
   'PYMODULE'),
  ('pandas.core.indexes.period',
   '/home/dumball/csvapp/.venv/lib/python3.11/site-packages/pandas/core/indexes/period.py',
   'PYMODULE'),
  ('pandas.core.indexes.range',
   '/home/dumball/csvapp/.venv/lib/python3.11/site-packages/pandas/core/indexes/range.py',
   'PYMODULE'),
  ('pandas.core.indexes.timedeltas',
   '/home/dumball/csvapp/.venv/lib/python3.11/site-packages/pandas/core/indexes/timedeltas.py',
   'PYMODULE'),
  ('pandas.core.indexing',
   '/home/dumball/csvapp/.venv/lib/python3.11/site-packages/pandas/core/indexing.py',
   'PYMODULE'),
  ('pandas.core.interchange',
   '/home/dumball/csvapp/.venv/lib/python3.11/site-packages/pandas/core/interchange/__init__.py',
   'PYMODULE'),
  ('pandas.core.interchange.buffer',
   '/home/dumball/csvapp/.venv/lib/python3.11/site-packages/pandas/core/interchange/buffer.py',
   'PYMODULE'),
  ('pandas.core.interchange.column',
   '/home/dumball/csvapp/.venv/lib/python3.11/site-packages/pandas/core/interchange/column.py',
   'PYMODULE'),
  ('pandas.core.interchange.dataframe',
   '/home/dumball/csvapp/.venv/lib/python3.11/site-packages/pandas/core/interchange/dataframe.py',
   'PYMODULE'),
  ('pandas.core.interchange.dataframe_protocol',
   '/home/dumball/csvapp/.venv/lib/python3.11/site-packages/pandas/core/interchange/dataframe_protocol.py',
   'PYMODULE'),
  ('pandas.core.interchange.from_dataframe',
   '/home/dumball/csvapp/.venv/lib/python3.11/site-packages/pandas/core/interchange/from_dataframe.py',
   'PYMODULE'),
  ('pandas.core.interchange.utils',
   '/home/dumball/csvapp/.venv/lib/python3.11/site-packages/pandas/core/interchange/utils.py',
   'PYMODULE'),
  ('pandas.core.internals',
   '/home/dumball/csvapp/.venv/lib/python3.11/site-packages/pandas/core/internals/__init__.py',
   'PYMODULE'),
  ('pandas.core.internals.api',
   '/home/dumball/csvapp/.venv/lib/python3.11/site-packages/pandas/core/internals/api.py',
   'PYMODULE'),
  ('pandas.core.internals.array_manager',
   '/home/dumball/csvapp/.venv/lib/python3.11/site-packages/pandas/core/internals/array_manager.py',
   'PYMODULE'),
  ('pandas.core.internals.base',
   '/home/dumball/csvapp/.venv/lib/python3.11/site-packages/pandas/core/internals/base.py',
   'PYMODULE'),
  ('pandas.core.internals.blocks',
   '/home/dumball/csvapp/.venv/lib/python3.11/site-packages/pandas/core/internals/blocks.py',
   'PYMODULE'),
  ('pandas.core.internals.concat',
   '/home/dumball/csvapp/.venv/lib/python3.11/site-packages/pandas/core/internals/concat.py',
   'PYMODULE'),
  ('pandas.core.internals.construction',
   '/home/dumball/csvapp/.venv/lib/python3.11/site-packages/pandas/core/internals/construction.py',
   'PYMODULE'),
  ('pandas.core.internals.managers',
   '/home/dumball/csvapp/.venv/lib/python3.11/site-packages/pandas/core/internals/managers.py',
   'PYMODULE'),
  ('pandas.core.internals.ops',
   '/home/dumball/csvapp/.venv/lib/python3.11/site-packages/pandas/core/internals/ops.py',
   'PYMODULE'),
  ('pandas.core.methods',
   '/home/dumball/csvapp/.venv/lib/python3.11/site-packages/pandas/core/methods/__init__.py',
   'PYMODULE'),
  ('pandas.core.methods.describe',
   '/home/dumball/csvapp/.venv/lib/python3.11/site-packages/pandas/core/methods/describe.py',
   'PYMODULE'),
  ('pandas.core.methods.selectn',
   '/home/dumball/csvapp/.venv/lib/python3.11/site-packages/pandas/core/methods/selectn.py',
   'PYMODULE'),
  ('pandas.core.methods.to_dict',
   '/home/dumball/csvapp/.venv/lib/python3.11/site-packages/pandas/core/methods/to_dict.py',
   'PYMODULE'),
  ('pandas.core.missing',
   '/home/dumball/csvapp/.venv/lib/python3.11/site-packages/pandas/core/missing.py',
   'PYMODULE'),
  ('pandas.core.nanops',
   '/home/dumball/csvapp/.venv/lib/python3.11/site-packages/pandas/core/nanops.py',
   'PYMODULE'),
  ('pandas.core.ops',
   '/home/dumball/csvapp/.venv/lib/python3.11/site-packages/pandas/core/ops/__init__.py',
   'PYMODULE'),
  ('pandas.core.ops.array_ops',
   '/home/dumball/csvapp/.venv/lib/python3.11/site-packages/pandas/core/ops/array_ops.py',
   'PYMODULE'),
  ('pandas.core.ops.common',
   '/home/dumball/csvapp/.venv/lib/python3.11/site-packages/pandas/core/ops/common.py',
   'PYMODULE'),
  ('pandas.core.ops.dispatch',
   '/home/dumball/csvapp/.venv/lib/python3.11/site-packages/pandas/core/ops/dispatch.py',
   'PYMODULE'),
  ('pandas.core.ops.docstrings',
   '/home/dumball/csvapp/.venv/lib/python3.11/site-packages/pandas/core/ops/docstrings.py',
   'PYMODULE'),
  ('pandas.core.ops.invalid',
   '/home/dumball/csvapp/.venv/lib/python3.11/site-packages/pandas/core/ops/invalid.py',
   'PYMODULE'),
  ('pandas.core.ops.mask_ops',
   '/home/dumball/csvapp/.venv/lib/python3.11/site-packages/pandas/core/ops/mask_ops.py',
   'PYMODULE'),
  ('pandas.core.ops.missing',
   '/home/dumball/csvapp/.venv/lib/python3.11/site-packages/pandas/core/ops/missing.py',
   'PYMODULE'),
  ('pandas.core.resample',
   '/home/dumball/csvapp/.venv/lib/python3.11/site-packages/pandas/core/resample.py',
   'PYMODULE'),
  ('pandas.core.reshape',
   '/home/dumball/csvapp/.venv/lib/python3.11/site-packages/pandas/core/reshape/__init__.py',
   'PYMODULE'),
  ('pandas.core.reshape.api',
   '/home/dumball/csvapp/.venv/lib/python3.11/site-packages/pandas/core/reshape/api.py',
   'PYMODULE'),
  ('pandas.core.reshape.concat',
   '/home/dumball/csvapp/.venv/lib/python3.11/site-packages/pandas/core/reshape/concat.py',
   'PYMODULE'),
  ('pandas.core.reshape.encoding',
   '/home/dumball/csvapp/.venv/lib/python3.11/site-packages/pandas/core/reshape/encoding.py',
   'PYMODULE'),
  ('pandas.core.reshape.melt',
   '/home/dumball/csvapp/.venv/lib/python3.11/site-packages/pandas/core/reshape/melt.py',
   'PYMODULE'),
  ('pandas.core.reshape.merge',
   '/home/dumball/csvapp/.venv/lib/python3.11/site-packages/pandas/core/reshape/merge.py',
   'PYMODULE'),
  ('pandas.core.reshape.pivot',
   '/home/dumball/csvapp/.venv/lib/python3.11/site-packages/pandas/core/reshape/pivot.py',
   'PYMODULE'),
  ('pandas.core.reshape.reshape',
   '/home/dumball/csvapp/.venv/lib/python3.11/site-packages/pandas/core/reshape/reshape.py',
   'PYMODULE'),
  ('pandas.core.reshape.tile',
   '/home/dumball/csvapp/.venv/lib/python3.11/site-packages/pandas/core/reshape/tile.py',
   'PYMODULE'),
  ('pandas.core.reshape.util',
   '/home/dumball/csvapp/.venv/lib/python3.11/site-packages/pandas/core/reshape/util.py',
   'PYMODULE'),
  ('pandas.core.roperator',
   '/home/dumball/csvapp/.venv/lib/python3.11/site-packages/pandas/core/roperator.py',
   'PYMODULE'),
  ('pandas.core.sample',
   '/home/dumball/csvapp/.venv/lib/python3.11/site-packages/pandas/core/sample.py',
   'PYMODULE'),
  ('pandas.core.series',
   '/home/dumball/csvapp/.venv/lib/python3.11/site-packages/pandas/core/series.py',
   'PYMODULE'),
  ('pandas.core.shared_docs',
   '/home/dumball/csvapp/.venv/lib/python3.11/site-packages/pandas/core/shared_docs.py',
   'PYMODULE'),
  ('pandas.core.sorting',
   '/home/dumball/csvapp/.venv/lib/python3.11/site-packages/pandas/core/sorting.py',
   'PYMODULE'),
  ('pandas.core.strings',
   '/home/dumball/csvapp/.venv/lib/python3.11/site-packages/pandas/core/strings/__init__.py',
   'PYMODULE'),
  ('pandas.core.strings.accessor',
   '/home/dumball/csvapp/.venv/lib/python3.11/site-packages/pandas/core/strings/accessor.py',
   'PYMODULE'),
  ('pandas.core.strings.base',
   '/home/dumball/csvapp/.venv/lib/python3.11/site-packages/pandas/core/strings/base.py',
   'PYMODULE'),
  ('pandas.core.strings.object_array',
   '/home/dumball/csvapp/.venv/lib/python3.11/site-packages/pandas/core/strings/object_array.py',
   'PYMODULE'),
  ('pandas.core.tools',
   '/home/dumball/csvapp/.venv/lib/python3.11/site-packages/pandas/core/tools/__init__.py',
   'PYMODULE'),
  ('pandas.core.tools.datetimes',
   '/home/dumball/csvapp/.venv/lib/python3.11/site-packages/pandas/core/tools/datetimes.py',
   'PYMODULE'),
  ('pandas.core.tools.numeric',
   '/home/dumball/csvapp/.venv/lib/python3.11/site-packages/pandas/core/tools/numeric.py',
   'PYMODULE'),
  ('pandas.core.tools.timedeltas',
   '/home/dumball/csvapp/.venv/lib/python3.11/site-packages/pandas/core/tools/timedeltas.py',
   'PYMODULE'),
  ('pandas.core.tools.times',
   '/home/dumball/csvapp/.venv/lib/python3.11/site-packages/pandas/core/tools/times.py',
   'PYMODULE'),
  ('pandas.core.util',
   '/home/dumball/csvapp/.venv/lib/python3.11/site-packages/pandas/core/util/__init__.py',
   'PYMODULE'),
  ('pandas.core.util.hashing',
   '/home/dumball/csvapp/.venv/lib/python3.11/site-packages/pandas/core/util/hashing.py',
   'PYMODULE'),
  ('pandas.core.util.numba_',
   '/home/dumball/csvapp/.venv/lib/python3.11/site-packages/pandas/core/util/numba_.py',
   'PYMODULE'),
  ('pandas.core.window',
   '/home/dumball/csvapp/.venv/lib/python3.11/site-packages/pandas/core/window/__init__.py',
   'PYMODULE'),
  ('pandas.core.window.common',
   '/home/dumball/csvapp/.venv/lib/python3.11/site-packages/pandas/core/window/common.py',
   'PYMODULE'),
  ('pandas.core.window.doc',
   '/home/dumball/csvapp/.venv/lib/python3.11/site-packages/pandas/core/window/doc.py',
   'PYMODULE'),
  ('pandas.core.window.ewm',
   '/home/dumball/csvapp/.venv/lib/python3.11/site-packages/pandas/core/window/ewm.py',
   'PYMODULE'),
  ('pandas.core.window.expanding',
   '/home/dumball/csvapp/.venv/lib/python3.11/site-packages/pandas/core/window/expanding.py',
   'PYMODULE'),
  ('pandas.core.window.numba_',
   '/home/dumball/csvapp/.venv/lib/python3.11/site-packages/pandas/core/window/numba_.py',
   'PYMODULE'),
  ('pandas.core.window.online',
   '/home/dumball/csvapp/.venv/lib/python3.11/site-packages/pandas/core/window/online.py',
   'PYMODULE'),
  ('pandas.core.window.rolling',
   '/home/dumball/csvapp/.venv/lib/python3.11/site-packages/pandas/core/window/rolling.py',
   'PYMODULE'),
  ('pandas.errors',
   '/home/dumball/csvapp/.venv/lib/python3.11/site-packages/pandas/errors/__init__.py',
   'PYMODULE'),
  ('pandas.io',
   '/home/dumball/csvapp/.venv/lib/python3.11/site-packages/pandas/io/__init__.py',
   'PYMODULE'),
  ('pandas.io._util',
   '/home/dumball/csvapp/.venv/lib/python3.11/site-packages/pandas/io/_util.py',
   'PYMODULE'),
  ('pandas.io.api',
   '/home/dumball/csvapp/.venv/lib/python3.11/site-packages/pandas/io/api.py',
   'PYMODULE'),
  ('pandas.io.clipboard',
   '/home/dumball/csvapp/.venv/lib/python3.11/site-packages/pandas/io/clipboard/__init__.py',
   'PYMODULE'),
  ('pandas.io.clipboards',
   '/home/dumball/csvapp/.venv/lib/python3.11/site-packages/pandas/io/clipboards.py',
   'PYMODULE'),
  ('pandas.io.common',
   '/home/dumball/csvapp/.venv/lib/python3.11/site-packages/pandas/io/common.py',
   'PYMODULE'),
  ('pandas.io.excel',
   '/home/dumball/csvapp/.venv/lib/python3.11/site-packages/pandas/io/excel/__init__.py',
   'PYMODULE'),
  ('pandas.io.excel._base',
   '/home/dumball/csvapp/.venv/lib/python3.11/site-packages/pandas/io/excel/_base.py',
   'PYMODULE'),
  ('pandas.io.excel._calamine',
   '/home/dumball/csvapp/.venv/lib/python3.11/site-packages/pandas/io/excel/_calamine.py',
   'PYMODULE'),
  ('pandas.io.excel._odfreader',
   '/home/dumball/csvapp/.venv/lib/python3.11/site-packages/pandas/io/excel/_odfreader.py',
   'PYMODULE'),
  ('pandas.io.excel._odswriter',
   '/home/dumball/csvapp/.venv/lib/python3.11/site-packages/pandas/io/excel/_odswriter.py',
   'PYMODULE'),
  ('pandas.io.excel._openpyxl',
   '/home/dumball/csvapp/.venv/lib/python3.11/site-packages/pandas/io/excel/_openpyxl.py',
   'PYMODULE'),
  ('pandas.io.excel._pyxlsb',
   '/home/dumball/csvapp/.venv/lib/python3.11/site-packages/pandas/io/excel/_pyxlsb.py',
   'PYMODULE'),
  ('pandas.io.excel._util',
   '/home/dumball/csvapp/.venv/lib/python3.11/site-packages/pandas/io/excel/_util.py',
   'PYMODULE'),
  ('pandas.io.excel._xlrd',
   '/home/dumball/csvapp/.venv/lib/python3.11/site-packages/pandas/io/excel/_xlrd.py',
   'PYMODULE'),
  ('pandas.io.excel._xlsxwriter',
   '/home/dumball/csvapp/.venv/lib/python3.11/site-packages/pandas/io/excel/_xlsxwriter.py',
   'PYMODULE'),
  ('pandas.io.feather_format',
   '/home/dumball/csvapp/.venv/lib/python3.11/site-packages/pandas/io/feather_format.py',
   'PYMODULE'),
  ('pandas.io.formats',
   '/home/dumball/csvapp/.venv/lib/python3.11/site-packages/pandas/io/formats/__init__.py',
   'PYMODULE'),
  ('pandas.io.formats._color_data',
   '/home/dumball/csvapp/.venv/lib/python3.11/site-packages/pandas/io/formats/_color_data.py',
   'PYMODULE'),
  ('pandas.io.formats.console',
   '/home/dumball/csvapp/.venv/lib/python3.11/site-packages/pandas/io/formats/console.py',
   'PYMODULE'),
  ('pandas.io.formats.css',
   '/home/dumball/csvapp/.venv/lib/python3.11/site-packages/pandas/io/formats/css.py',
   'PYMODULE'),
  ('pandas.io.formats.csvs',
   '/home/dumball/csvapp/.venv/lib/python3.11/site-packages/pandas/io/formats/csvs.py',
   'PYMODULE'),
  ('pandas.io.formats.excel',
   '/home/dumball/csvapp/.venv/lib/python3.11/site-packages/pandas/io/formats/excel.py',
   'PYMODULE'),
  ('pandas.io.formats.format',
   '/home/dumball/csvapp/.venv/lib/python3.11/site-packages/pandas/io/formats/format.py',
   'PYMODULE'),
  ('pandas.io.formats.html',
   '/home/dumball/csvapp/.venv/lib/python3.11/site-packages/pandas/io/formats/html.py',
   'PYMODULE'),
  ('pandas.io.formats.info',
   '/home/dumball/csvapp/.venv/lib/python3.11/site-packages/pandas/io/formats/info.py',
   'PYMODULE'),
  ('pandas.io.formats.printing',
   '/home/dumball/csvapp/.venv/lib/python3.11/site-packages/pandas/io/formats/printing.py',
   'PYMODULE'),
  ('pandas.io.formats.string',
   '/home/dumball/csvapp/.venv/lib/python3.11/site-packages/pandas/io/formats/string.py',
   'PYMODULE'),
  ('pandas.io.formats.style',
   '/home/dumball/csvapp/.venv/lib/python3.11/site-packages/pandas/io/formats/style.py',
   'PYMODULE'),
  ('pandas.io.formats.style_render',
   '/home/dumball/csvapp/.venv/lib/python3.11/site-packages/pandas/io/formats/style_render.py',
   'PYMODULE'),
  ('pandas.io.formats.xml',
   '/home/dumball/csvapp/.venv/lib/python3.11/site-packages/pandas/io/formats/xml.py',
   'PYMODULE'),
  ('pandas.io.gbq',
   '/home/dumball/csvapp/.venv/lib/python3.11/site-packages/pandas/io/gbq.py',
   'PYMODULE'),
  ('pandas.io.html',
   '/home/dumball/csvapp/.venv/lib/python3.11/site-packages/pandas/io/html.py',
   'PYMODULE'),
  ('pandas.io.json',
   '/home/dumball/csvapp/.venv/lib/python3.11/site-packages/pandas/io/json/__init__.py',
   'PYMODULE'),
  ('pandas.io.json._json',
   '/home/dumball/csvapp/.venv/lib/python3.11/site-packages/pandas/io/json/_json.py',
   'PYMODULE'),
  ('pandas.io.json._normalize',
   '/home/dumball/csvapp/.venv/lib/python3.11/site-packages/pandas/io/json/_normalize.py',
   'PYMODULE'),
  ('pandas.io.json._table_schema',
   '/home/dumball/csvapp/.venv/lib/python3.11/site-packages/pandas/io/json/_table_schema.py',
   'PYMODULE'),
  ('pandas.io.orc',
   '/home/dumball/csvapp/.venv/lib/python3.11/site-packages/pandas/io/orc.py',
   'PYMODULE'),
  ('pandas.io.parquet',
   '/home/dumball/csvapp/.venv/lib/python3.11/site-packages/pandas/io/parquet.py',
   'PYMODULE'),
  ('pandas.io.parsers',
   '/home/dumball/csvapp/.venv/lib/python3.11/site-packages/pandas/io/parsers/__init__.py',
   'PYMODULE'),
  ('pandas.io.parsers.arrow_parser_wrapper',
   '/home/dumball/csvapp/.venv/lib/python3.11/site-packages/pandas/io/parsers/arrow_parser_wrapper.py',
   'PYMODULE'),
  ('pandas.io.parsers.base_parser',
   '/home/dumball/csvapp/.venv/lib/python3.11/site-packages/pandas/io/parsers/base_parser.py',
   'PYMODULE'),
  ('pandas.io.parsers.c_parser_wrapper',
   '/home/dumball/csvapp/.venv/lib/python3.11/site-packages/pandas/io/parsers/c_parser_wrapper.py',
   'PYMODULE'),
  ('pandas.io.parsers.python_parser',
   '/home/dumball/csvapp/.venv/lib/python3.11/site-packages/pandas/io/parsers/python_parser.py',
   'PYMODULE'),
  ('pandas.io.parsers.readers',
   '/home/dumball/csvapp/.venv/lib/python3.11/site-packages/pandas/io/parsers/readers.py',
   'PYMODULE'),
  ('pandas.io.pickle',
   '/home/dumball/csvapp/.venv/lib/python3.11/site-packages/pandas/io/pickle.py',
   'PYMODULE'),
  ('pandas.io.pytables',
   '/home/dumball/csvapp/.venv/lib/python3.11/site-packages/pandas/io/pytables.py',
   'PYMODULE'),
  ('pandas.io.sas',
   '/home/dumball/csvapp/.venv/lib/python3.11/site-packages/pandas/io/sas/__init__.py',
   'PYMODULE'),
  ('pandas.io.sas.sas7bdat',
   '/home/dumball/csvapp/.venv/lib/python3.11/site-packages/pandas/io/sas/sas7bdat.py',
   'PYMODULE'),
  ('pandas.io.sas.sas_constants',
   '/home/dumball/csvapp/.venv/lib/python3.11/site-packages/pandas/io/sas/sas_constants.py',
   'PYMODULE'),
  ('pandas.io.sas.sas_xport',
   '/home/dumball/csvapp/.venv/lib/python3.11/site-packages/pandas/io/sas/sas_xport.py',
   'PYMODULE'),
  ('pandas.io.sas.sasreader',
   '/home/dumball/csvapp/.venv/lib/python3.11/site-packages/pandas/io/sas/sasreader.py',
   'PYMODULE'),
  ('pandas.io.spss',
   '/home/dumball/csvapp/.venv/lib/python3.11/site-packages/pandas/io/spss.py',
   'PYMODULE'),
  ('pandas.io.sql',
   '/home/dumball/csvapp/.venv/lib/python3.11/site-packages/pandas/io/sql.py',
   'PYMODULE'),
  ('pandas.io.stata',
   '/home/dumball/csvapp/.venv/lib/python3.11/site-packages/pandas/io/stata.py',
   'PYMODULE'),
  ('pandas.io.xml',
   '/home/dumball/csvapp/.venv/lib/python3.11/site-packages/pandas/io/xml.py',
   'PYMODULE'),
  ('pandas.plotting',
   '/home/dumball/csvapp/.venv/lib/python3.11/site-packages/pandas/plotting/__init__.py',
   'PYMODULE'),
  ('pandas.plotting._core',
   '/home/dumball/csvapp/.venv/lib/python3.11/site-packages/pandas/plotting/_core.py',
   'PYMODULE'),
  ('pandas.plotting._misc',
   '/home/dumball/csvapp/.venv/lib/python3.11/site-packages/pandas/plotting/_misc.py',
   'PYMODULE'),
  ('pandas.testing',
   '/home/dumball/csvapp/.venv/lib/python3.11/site-packages/pandas/testing.py',
   'PYMODULE'),
  ('pandas.tseries',
   '/home/dumball/csvapp/.venv/lib/python3.11/site-packages/pandas/tseries/__init__.py',
   'PYMODULE'),
  ('pandas.tseries.api',
   '/home/dumball/csvapp/.venv/lib/python3.11/site-packages/pandas/tseries/api.py',
   'PYMODULE'),
  ('pandas.tseries.frequencies',
   '/home/dumball/csvapp/.venv/lib/python3.11/site-packages/pandas/tseries/frequencies.py',
   'PYMODULE'),
  ('pandas.tseries.holiday',
   '/home/dumball/csvapp/.venv/lib/python3.11/site-packages/pandas/tseries/holiday.py',
   'PYMODULE'),
  ('pandas.tseries.offsets',
   '/home/dumball/csvapp/.venv/lib/python3.11/site-packages/pandas/tseries/offsets.py',
   'PYMODULE'),
  ('pandas.util',
   '/home/dumball/csvapp/.venv/lib/python3.11/site-packages/pandas/util/__init__.py',
   'PYMODULE'),
  ('pandas.util._decorators',
   '/home/dumball/csvapp/.venv/lib/python3.11/site-packages/pandas/util/_decorators.py',
   'PYMODULE'),
  ('pandas.util._exceptions',
   '/home/dumball/csvapp/.venv/lib/python3.11/site-packages/pandas/util/_exceptions.py',
   'PYMODULE'),
  ('pandas.util._print_versions',
   '/home/dumball/csvapp/.venv/lib/python3.11/site-packages/pandas/util/_print_versions.py',
   'PYMODULE'),
  ('pandas.util._tester',
   '/home/dumball/csvapp/.venv/lib/python3.11/site-packages/pandas/util/_tester.py',
   'PYMODULE'),
  ('pandas.util._validators',
   '/home/dumball/csvapp/.venv/lib/python3.11/site-packages/pandas/util/_validators.py',
   'PYMODULE'),
  ('pandas.util.version',
   '/home/dumball/csvapp/.venv/lib/python3.11/site-packages/pandas/util/version/__init__.py',
   'PYMODULE'),
  ('pathlib', '/usr/lib/python3.11/pathlib.py', 'PYMODULE'),
  ('pdb', '/usr/lib/python3.11/pdb.py', 'PYMODULE'),
  ('pickle', '/usr/lib/python3.11/pickle.py', 'PYMODULE'),
  ('pickletools', '/usr/lib/python3.11/pickletools.py', 'PYMODULE'),
  ('pkg_resources',
   '/home/dumball/csvapp/.venv/lib/python3.11/site-packages/pkg_resources/__init__.py',
   'PYMODULE'),
  ('pkg_resources._vendor',
   '/home/dumball/csvapp/.venv/lib/python3.11/site-packages/pkg_resources/_vendor/__init__.py',
   'PYMODULE'),
  ('pkg_resources._vendor.backports',
   '/home/dumball/csvapp/.venv/lib/python3.11/site-packages/pkg_resources/_vendor/backports/__init__.py',
   'PYMODULE'),
  ('pkg_resources._vendor.backports.tarfile',
   '/home/dumball/csvapp/.venv/lib/python3.11/site-packages/pkg_resources/_vendor/backports/tarfile.py',
   'PYMODULE'),
  ('pkg_resources._vendor.importlib_resources',
   '/home/dumball/csvapp/.venv/lib/python3.11/site-packages/pkg_resources/_vendor/importlib_resources/__init__.py',
   'PYMODULE'),
  ('pkg_resources._vendor.importlib_resources._adapters',
   '/home/dumball/csvapp/.venv/lib/python3.11/site-packages/pkg_resources/_vendor/importlib_resources/_adapters.py',
   'PYMODULE'),
  ('pkg_resources._vendor.importlib_resources._common',
   '/home/dumball/csvapp/.venv/lib/python3.11/site-packages/pkg_resources/_vendor/importlib_resources/_common.py',
   'PYMODULE'),
  ('pkg_resources._vendor.importlib_resources._compat',
   '/home/dumball/csvapp/.venv/lib/python3.11/site-packages/pkg_resources/_vendor/importlib_resources/_compat.py',
   'PYMODULE'),
  ('pkg_resources._vendor.importlib_resources._itertools',
   '/home/dumball/csvapp/.venv/lib/python3.11/site-packages/pkg_resources/_vendor/importlib_resources/_itertools.py',
   'PYMODULE'),
  ('pkg_resources._vendor.importlib_resources._legacy',
   '/home/dumball/csvapp/.venv/lib/python3.11/site-packages/pkg_resources/_vendor/importlib_resources/_legacy.py',
   'PYMODULE'),
  ('pkg_resources._vendor.importlib_resources.abc',
   '/home/dumball/csvapp/.venv/lib/python3.11/site-packages/pkg_resources/_vendor/importlib_resources/abc.py',
   'PYMODULE'),
  ('pkg_resources._vendor.importlib_resources.readers',
   '/home/dumball/csvapp/.venv/lib/python3.11/site-packages/pkg_resources/_vendor/importlib_resources/readers.py',
   'PYMODULE'),
  ('pkg_resources._vendor.importlib_resources.simple',
   '/home/dumball/csvapp/.venv/lib/python3.11/site-packages/pkg_resources/_vendor/importlib_resources/simple.py',
   'PYMODULE'),
  ('pkg_resources._vendor.jaraco',
   '/home/dumball/csvapp/.venv/lib/python3.11/site-packages/pkg_resources/_vendor/jaraco/__init__.py',
   'PYMODULE'),
  ('pkg_resources._vendor.jaraco.context',
   '/home/dumball/csvapp/.venv/lib/python3.11/site-packages/pkg_resources/_vendor/jaraco/context.py',
   'PYMODULE'),
  ('pkg_resources._vendor.jaraco.functools',
   '/home/dumball/csvapp/.venv/lib/python3.11/site-packages/pkg_resources/_vendor/jaraco/functools/__init__.py',
   'PYMODULE'),
  ('pkg_resources._vendor.jaraco.text',
   '/home/dumball/csvapp/.venv/lib/python3.11/site-packages/pkg_resources/_vendor/jaraco/text/__init__.py',
   'PYMODULE'),
  ('pkg_resources._vendor.more_itertools',
   '/home/dumball/csvapp/.venv/lib/python3.11/site-packages/pkg_resources/_vendor/more_itertools/__init__.py',
   'PYMODULE'),
  ('pkg_resources._vendor.more_itertools.more',
   '/home/dumball/csvapp/.venv/lib/python3.11/site-packages/pkg_resources/_vendor/more_itertools/more.py',
   'PYMODULE'),
  ('pkg_resources._vendor.more_itertools.recipes',
   '/home/dumball/csvapp/.venv/lib/python3.11/site-packages/pkg_resources/_vendor/more_itertools/recipes.py',
   'PYMODULE'),
  ('pkg_resources._vendor.packaging',
   '/home/dumball/csvapp/.venv/lib/python3.11/site-packages/pkg_resources/_vendor/packaging/__init__.py',
   'PYMODULE'),
  ('pkg_resources._vendor.packaging._elffile',
   '/home/dumball/csvapp/.venv/lib/python3.11/site-packages/pkg_resources/_vendor/packaging/_elffile.py',
   'PYMODULE'),
  ('pkg_resources._vendor.packaging._manylinux',
   '/home/dumball/csvapp/.venv/lib/python3.11/site-packages/pkg_resources/_vendor/packaging/_manylinux.py',
   'PYMODULE'),
  ('pkg_resources._vendor.packaging._musllinux',
   '/home/dumball/csvapp/.venv/lib/python3.11/site-packages/pkg_resources/_vendor/packaging/_musllinux.py',
   'PYMODULE'),
  ('pkg_resources._vendor.packaging._parser',
   '/home/dumball/csvapp/.venv/lib/python3.11/site-packages/pkg_resources/_vendor/packaging/_parser.py',
   'PYMODULE'),
  ('pkg_resources._vendor.packaging._structures',
   '/home/dumball/csvapp/.venv/lib/python3.11/site-packages/pkg_resources/_vendor/packaging/_structures.py',
   'PYMODULE'),
  ('pkg_resources._vendor.packaging._tokenizer',
   '/home/dumball/csvapp/.venv/lib/python3.11/site-packages/pkg_resources/_vendor/packaging/_tokenizer.py',
   'PYMODULE'),
  ('pkg_resources._vendor.packaging.markers',
   '/home/dumball/csvapp/.venv/lib/python3.11/site-packages/pkg_resources/_vendor/packaging/markers.py',
   'PYMODULE'),
  ('pkg_resources._vendor.packaging.metadata',
   '/home/dumball/csvapp/.venv/lib/python3.11/site-packages/pkg_resources/_vendor/packaging/metadata.py',
   'PYMODULE'),
  ('pkg_resources._vendor.packaging.requirements',
   '/home/dumball/csvapp/.venv/lib/python3.11/site-packages/pkg_resources/_vendor/packaging/requirements.py',
   'PYMODULE'),
  ('pkg_resources._vendor.packaging.specifiers',
   '/home/dumball/csvapp/.venv/lib/python3.11/site-packages/pkg_resources/_vendor/packaging/specifiers.py',
   'PYMODULE'),
  ('pkg_resources._vendor.packaging.tags',
   '/home/dumball/csvapp/.venv/lib/python3.11/site-packages/pkg_resources/_vendor/packaging/tags.py',
   'PYMODULE'),
  ('pkg_resources._vendor.packaging.utils',
   '/home/dumball/csvapp/.venv/lib/python3.11/site-packages/pkg_resources/_vendor/packaging/utils.py',
   'PYMODULE'),
  ('pkg_resources._vendor.packaging.version',
   '/home/dumball/csvapp/.venv/lib/python3.11/site-packages/pkg_resources/_vendor/packaging/version.py',
   'PYMODULE'),
  ('pkg_resources._vendor.platformdirs',
   '/home/dumball/csvapp/.venv/lib/python3.11/site-packages/pkg_resources/_vendor/platformdirs/__init__.py',
   'PYMODULE'),
  ('pkg_resources._vendor.platformdirs.__main__',
   '/home/dumball/csvapp/.venv/lib/python3.11/site-packages/pkg_resources/_vendor/platformdirs/__main__.py',
   'PYMODULE'),
  ('pkg_resources._vendor.platformdirs.android',
   '/home/dumball/csvapp/.venv/lib/python3.11/site-packages/pkg_resources/_vendor/platformdirs/android.py',
   'PYMODULE'),
  ('pkg_resources._vendor.platformdirs.api',
   '/home/dumball/csvapp/.venv/lib/python3.11/site-packages/pkg_resources/_vendor/platformdirs/api.py',
   'PYMODULE'),
  ('pkg_resources._vendor.platformdirs.macos',
   '/home/dumball/csvapp/.venv/lib/python3.11/site-packages/pkg_resources/_vendor/platformdirs/macos.py',
   'PYMODULE'),
  ('pkg_resources._vendor.platformdirs.unix',
   '/home/dumball/csvapp/.venv/lib/python3.11/site-packages/pkg_resources/_vendor/platformdirs/unix.py',
   'PYMODULE'),
  ('pkg_resources._vendor.platformdirs.version',
   '/home/dumball/csvapp/.venv/lib/python3.11/site-packages/pkg_resources/_vendor/platformdirs/version.py',
   'PYMODULE'),
  ('pkg_resources._vendor.platformdirs.windows',
   '/home/dumball/csvapp/.venv/lib/python3.11/site-packages/pkg_resources/_vendor/platformdirs/windows.py',
   'PYMODULE'),
  ('pkg_resources._vendor.zipp',
   '/home/dumball/csvapp/.venv/lib/python3.11/site-packages/pkg_resources/_vendor/zipp.py',
   'PYMODULE'),
  ('pkg_resources.extern',
   '/home/dumball/csvapp/.venv/lib/python3.11/site-packages/pkg_resources/extern/__init__.py',
   'PYMODULE'),
  ('pkgutil', '/usr/lib/python3.11/pkgutil.py', 'PYMODULE'),
  ('platform', '/usr/lib/python3.11/platform.py', 'PYMODULE'),
  ('plistlib', '/usr/lib/python3.11/plistlib.py', 'PYMODULE'),
  ('pprint', '/usr/lib/python3.11/pprint.py', 'PYMODULE'),
  ('py_compile', '/usr/lib/python3.11/py_compile.py', 'PYMODULE'),
  ('pydoc', '/usr/lib/python3.11/pydoc.py', 'PYMODULE'),
  ('pydoc_data', '/usr/lib/python3.11/pydoc_data/__init__.py', 'PYMODULE'),
  ('pydoc_data.topics', '/usr/lib/python3.11/pydoc_data/topics.py', 'PYMODULE'),
  ('pytz',
   '/home/dumball/csvapp/.venv/lib/python3.11/site-packages/pytz/__init__.py',
   'PYMODULE'),
  ('pytz.exceptions',
   '/home/dumball/csvapp/.venv/lib/python3.11/site-packages/pytz/exceptions.py',
   'PYMODULE'),
  ('pytz.lazy',
   '/home/dumball/csvapp/.venv/lib/python3.11/site-packages/pytz/lazy.py',
   'PYMODULE'),
  ('pytz.tzfile',
   '/home/dumball/csvapp/.venv/lib/python3.11/site-packages/pytz/tzfile.py',
   'PYMODULE'),
  ('pytz.tzinfo',
   '/home/dumball/csvapp/.venv/lib/python3.11/site-packages/pytz/tzinfo.py',
   'PYMODULE'),
  ('queue', '/usr/lib/python3.11/queue.py', 'PYMODULE'),
  ('quopri', '/usr/lib/python3.11/quopri.py', 'PYMODULE'),
  ('random', '/usr/lib/python3.11/random.py', 'PYMODULE'),
  ('runpy', '/usr/lib/python3.11/runpy.py', 'PYMODULE'),
  ('secrets', '/usr/lib/python3.11/secrets.py', 'PYMODULE'),
  ('selectors', '/usr/lib/python3.11/selectors.py', 'PYMODULE'),
  ('shlex', '/usr/lib/python3.11/shlex.py', 'PYMODULE'),
  ('shutil', '/usr/lib/python3.11/shutil.py', 'PYMODULE'),
  ('signal', '/usr/lib/python3.11/signal.py', 'PYMODULE'),
  ('six',
   '/home/dumball/csvapp/.venv/lib/python3.11/site-packages/six.py',
   'PYMODULE'),
  ('socket', '/usr/lib/python3.11/socket.py', 'PYMODULE'),
  ('socketserver', '/usr/lib/python3.11/socketserver.py', 'PYMODULE'),
  ('sqlite3', '/usr/lib/python3.11/sqlite3/__init__.py', 'PYMODULE'),
  ('sqlite3.dbapi2', '/usr/lib/python3.11/sqlite3/dbapi2.py', 'PYMODULE'),
  ('sqlite3.dump', '/usr/lib/python3.11/sqlite3/dump.py', 'PYMODULE'),
  ('ssl', '/usr/lib/python3.11/ssl.py', 'PYMODULE'),
  ('statistics', '/usr/lib/python3.11/statistics.py', 'PYMODULE'),
  ('string', '/usr/lib/python3.11/string.py', 'PYMODULE'),
  ('stringprep', '/usr/lib/python3.11/stringprep.py', 'PYMODULE'),
  ('subprocess', '/usr/lib/python3.11/subprocess.py', 'PYMODULE'),
  ('sysconfig', '/usr/lib/python3.11/sysconfig.py', 'PYMODULE'),
  ('tarfile', '/usr/lib/python3.11/tarfile.py', 'PYMODULE'),
  ('tempfile', '/usr/lib/python3.11/tempfile.py', 'PYMODULE'),
  ('textwrap', '/usr/lib/python3.11/textwrap.py', 'PYMODULE'),
  ('threading', '/usr/lib/python3.11/threading.py', 'PYMODULE'),
  ('token', '/usr/lib/python3.11/token.py', 'PYMODULE'),
  ('tokenize', '/usr/lib/python3.11/tokenize.py', 'PYMODULE'),
  ('tracemalloc', '/usr/lib/python3.11/tracemalloc.py', 'PYMODULE'),
  ('tty', '/usr/lib/python3.11/tty.py', 'PYMODULE'),
  ('typing', '/usr/lib/python3.11/typing.py', 'PYMODULE'),
  ('unittest', '/usr/lib/python3.11/unittest/__init__.py', 'PYMODULE'),
  ('unittest._log', '/usr/lib/python3.11/unittest/_log.py', 'PYMODULE'),
  ('unittest.async_case',
   '/usr/lib/python3.11/unittest/async_case.py',
   'PYMODULE'),
  ('unittest.case', '/usr/lib/python3.11/unittest/case.py', 'PYMODULE'),
  ('unittest.loader', '/usr/lib/python3.11/unittest/loader.py', 'PYMODULE'),
  ('unittest.main', '/usr/lib/python3.11/unittest/main.py', 'PYMODULE'),
  ('unittest.result', '/usr/lib/python3.11/unittest/result.py', 'PYMODULE'),
  ('unittest.runner', '/usr/lib/python3.11/unittest/runner.py', 'PYMODULE'),
  ('unittest.signals', '/usr/lib/python3.11/unittest/signals.py', 'PYMODULE'),
  ('unittest.suite', '/usr/lib/python3.11/unittest/suite.py', 'PYMODULE'),
  ('unittest.util', '/usr/lib/python3.11/unittest/util.py', 'PYMODULE'),
  ('urllib', '/usr/lib/python3.11/urllib/__init__.py', 'PYMODULE'),
  ('urllib.error', '/usr/lib/python3.11/urllib/error.py', 'PYMODULE'),
  ('urllib.parse', '/usr/lib/python3.11/urllib/parse.py', 'PYMODULE'),
  ('urllib.request', '/usr/lib/python3.11/urllib/request.py', 'PYMODULE'),
  ('urllib.response', '/usr/lib/python3.11/urllib/response.py', 'PYMODULE'),
  ('uuid', '/usr/lib/python3.11/uuid.py', 'PYMODULE'),
  ('webbrowser', '/usr/lib/python3.11/webbrowser.py', 'PYMODULE'),
  ('xml', '/usr/lib/python3.11/xml/__init__.py', 'PYMODULE'),
  ('xml.dom', '/usr/lib/python3.11/xml/dom/__init__.py', 'PYMODULE'),
  ('xml.dom.NodeFilter',
   '/usr/lib/python3.11/xml/dom/NodeFilter.py',
   'PYMODULE'),
  ('xml.dom.domreg', '/usr/lib/python3.11/xml/dom/domreg.py', 'PYMODULE'),
  ('xml.dom.expatbuilder',
   '/usr/lib/python3.11/xml/dom/expatbuilder.py',
   'PYMODULE'),
  ('xml.dom.minicompat',
   '/usr/lib/python3.11/xml/dom/minicompat.py',
   'PYMODULE'),
  ('xml.dom.minidom', '/usr/lib/python3.11/xml/dom/minidom.py', 'PYMODULE'),
  ('xml.dom.pulldom', '/usr/lib/python3.11/xml/dom/pulldom.py', 'PYMODULE'),
  ('xml.dom.xmlbuilder',
   '/usr/lib/python3.11/xml/dom/xmlbuilder.py',
   'PYMODULE'),
  ('xml.etree', '/usr/lib/python3.11/xml/etree/__init__.py', 'PYMODULE'),
  ('xml.etree.ElementInclude',
   '/usr/lib/python3.11/xml/etree/ElementInclude.py',
   'PYMODULE'),
  ('xml.etree.ElementPath',
   '/usr/lib/python3.11/xml/etree/ElementPath.py',
   'PYMODULE'),
  ('xml.etree.ElementTree',
   '/usr/lib/python3.11/xml/etree/ElementTree.py',
   'PYMODULE'),
  ('xml.etree.cElementTree',
   '/usr/lib/python3.11/xml/etree/cElementTree.py',
   'PYMODULE'),
  ('xml.parsers', '/usr/lib/python3.11/xml/parsers/__init__.py', 'PYMODULE'),
  ('xml.parsers.expat', '/usr/lib/python3.11/xml/parsers/expat.py', 'PYMODULE'),
  ('xml.sax', '/usr/lib/python3.11/xml/sax/__init__.py', 'PYMODULE'),
  ('xml.sax._exceptions',
   '/usr/lib/python3.11/xml/sax/_exceptions.py',
   'PYMODULE'),
  ('xml.sax.expatreader',
   '/usr/lib/python3.11/xml/sax/expatreader.py',
   'PYMODULE'),
  ('xml.sax.handler', '/usr/lib/python3.11/xml/sax/handler.py', 'PYMODULE'),
  ('xml.sax.saxutils', '/usr/lib/python3.11/xml/sax/saxutils.py', 'PYMODULE'),
  ('xml.sax.xmlreader', '/usr/lib/python3.11/xml/sax/xmlreader.py', 'PYMODULE'),
  ('xmlrpc', '/usr/lib/python3.11/xmlrpc/__init__.py', 'PYMODULE'),
  ('xmlrpc.client', '/usr/lib/python3.11/xmlrpc/client.py', 'PYMODULE'),
  ('zipfile', '/usr/lib/python3.11/zipfile.py', 'PYMODULE'),
  ('zipimport', '/usr/lib/python3.11/zipimport.py', 'PYMODULE')])
